AI-Achievement/top_tb.vcd
$date
	Wed Jul 30 19:00:44 2025
$end
$version
	Icarus Verilog
$end
$timescale
	1ps
$end
$scope module top_tb $end
$var wire 1 ! st $end
$var wire 51 " nout [50:0] $end
$var reg 24 # D [23:0] $end
$var reg 8 $ WA [7:0] $end
$var reg 1 % cima $end
$var reg 1 & clk $end
$var reg 1 ' inwidth $end
$var reg 1 ( rstn $end
$var reg 1 ) start $end
$var reg 1 * wwidth $end
$var reg 192 + xin0 [191:0] $end
$scope module uut $end
$var wire 24 , D [23:0] $end
$var wire 8 - WA [7:0] $end
$var wire 1 % cima $end
$var wire 1 & clk $end
$var wire 1 ' inwidth $end
$var wire 1 ( rstn $end
$var wire 1 ) start $end
$var wire 1 * wwidth $end
$var wire 192 . xin0 [191:0] $end
$var wire 8 / wa1 [7:0] $end
$var wire 8 0 wa0 [7:0] $end
$var wire 1 ! st $end
$var wire 51 1 nout [50:0] $end
$var wire 96 2 nW1_low [95:0] $end
$var wire 96 3 nW1_high [95:0] $end
$var wire 96 4 nW0_low [95:0] $end
$var wire 96 5 nW0_high [95:0] $end
$scope module array_ctrl_inst $end
$var wire 8 6 WA [7:0] $end
$var wire 1 % cima $end
$var wire 8 7 WA1 [7:0] $end
$var wire 8 8 WA0 [7:0] $end
$upscope $end
$scope module array_inst $end
$var wire 24 9 D [23:0] $end
$var wire 8 : WA0 [7:0] $end
$var wire 8 ; WA1 [7:0] $end
$var wire 1 & clk $end
$var wire 96 < nW1_low [95:0] $end
$var wire 96 = nW1_high [95:0] $end
$var wire 96 > nW0_low [95:0] $end
$var wire 96 ? nW0_high [95:0] $end
$scope module bank0 $end
$var wire 24 @ D [23:0] $end
$var wire 8 A WA [7:0] $end
$var wire 1 & clk $end
$var wire 96 B nW_high [95:0] $end
$var wire 96 C nW_low [95:0] $end
$var wire 96 D W_low_internal [95:0] $end
$var wire 96 E W_high_internal [95:0] $end
$var integer 32 F i [31:0] $end
$scope begin genblk1[0] $end
$var parameter 2 G j $end
$upscope $end
$scope begin genblk1[1] $end
$var parameter 2 H j $end
$upscope $end
$scope begin genblk1[2] $end
$var parameter 3 I j $end
$upscope $end
$scope begin genblk1[3] $end
$var parameter 3 J j $end
$upscope $end
$scope begin genblk1[4] $end
$var parameter 4 K j $end
$upscope $end
$scope begin genblk1[5] $end
$var parameter 4 L j $end
$upscope $end
$scope begin genblk1[6] $end
$var parameter 4 M j $end
$upscope $end
$scope begin genblk1[7] $end
$var parameter 4 N j $end
$upscope $end
$upscope $end
$scope module bank1 $end
$var wire 24 O D [23:0] $end
$var wire 8 P WA [7:0] $end
$var wire 1 & clk $end
$var wire 96 Q nW_high [95:0] $end
$var wire 96 R nW_low [95:0] $end
$var wire 96 S W_low_internal [95:0] $end
$var wire 96 T W_high_internal [95:0] $end
$var integer 32 U i [31:0] $end
$scope begin genblk1[0] $end
$var parameter 2 V j $end
$upscope $end
$scope begin genblk1[1] $end
$var parameter 2 W j $end
$upscope $end
$scope begin genblk1[2] $end
$var parameter 3 X j $end
$upscope $end
$scope begin genblk1[3] $end
$var parameter 3 Y j $end
$upscope $end
$scope begin genblk1[4] $end
$var parameter 4 Z j $end
$upscope $end
$scope begin genblk1[5] $end
$var parameter 4 [ j $end
$upscope $end
$scope begin genblk1[6] $end
$var parameter 4 \ j $end
$upscope $end
$scope begin genblk1[7] $end
$var parameter 4 ] j $end
$upscope $end
$upscope $end
$upscope $end
$scope module digital_inst $end
$var wire 1 % cima $end
$var wire 1 & clk $end
$var wire 1 ' inwidth $end
$var wire 96 ^ nW0_high [95:0] $end
$var wire 96 _ nW0_low [95:0] $end
$var wire 96 ` nW1_high [95:0] $end
$var wire 96 a nW1_low [95:0] $end
$var wire 1 ( rstn $end
$var wire 1 ) start $end
$var wire 1 * wwidth $end
$var wire 192 b xin0 [191:0] $end
$var wire 1 c sus $end
$var wire 1 ! st $end
$var wire 6 d sel [5:0] $end
$var wire 27 e partial_sum [26:0] $end
$var wire 51 f nout [50:0] $end
$var wire 8 g nX1 [7:0] $end
$var wire 8 h nX0 [7:0] $end
$var wire 15 i mac_out_low [14:0] $end
$var wire 15 j mac_out_high [14:0] $end
$scope module acc_inst $end
$var wire 1 & clk $end
$var wire 51 k nout [50:0] $end
$var wire 1 ( rstn $end
$var wire 1 ! st $end
$var wire 51 l next_sum [50:0] $end
$var wire 27 m new_partial_sum [26:0] $end
$var reg 51 n total_sum [50:0] $end
$scope module adder_for_acc $end
$var wire 51 o b [50:0] $end
$var wire 51 p sum [50:0] $end
$var wire 27 q low_sum [26:0] $end
$var wire 1 r low_carry $end
$var wire 24 s high_sum [23:0] $end
$var wire 51 t a_extended [50:0] $end
$var wire 27 u a [26:0] $end
$scope module high_adder $end
$var wire 24 v a [23:0] $end
$var wire 24 w b [23:0] $end
$var wire 1 r cin $end
$var wire 24 x sum [23:0] $end
$var wire 24 y p [23:0] $end
$var wire 24 z g [23:0] $end
$var wire 25 { c [24:0] $end
$var wire 6 | P [5:0] $end
$var wire 6 } G [5:0] $end
$scope begin bit_level_pg[0] $end
$var parameter 2 ~ i $end
$upscope $end
$scope begin bit_level_pg[1] $end
$var parameter 2 !" i $end
$upscope $end
$scope begin bit_level_pg[2] $end
$var parameter 3 "" i $end
$upscope $end
$scope begin bit_level_pg[3] $end
$var parameter 3 #" i $end
$upscope $end
$scope begin bit_level_pg[4] $end
$var parameter 4 $" i $end
$upscope $end
$scope begin bit_level_pg[5] $end
$var parameter 4 %" i $end
$upscope $end
$scope begin bit_level_pg[6] $end
$var parameter 4 &" i $end
$upscope $end
$scope begin bit_level_pg[7] $end
$var parameter 4 '" i $end
$upscope $end
$scope begin bit_level_pg[8] $end
$var parameter 5 (" i $end
$upscope $end
$scope begin bit_level_pg[9] $end
$var parameter 5 )" i $end
$upscope $end
$scope begin bit_level_pg[10] $end
$var parameter 5 *" i $end
$upscope $end
$scope begin bit_level_pg[11] $end
$var parameter 5 +" i $end
$upscope $end
$scope begin bit_level_pg[12] $end
$var parameter 5 ," i $end
$upscope $end
$scope begin bit_level_pg[13] $end
$var parameter 5 -" i $end
$upscope $end
$scope begin bit_level_pg[14] $end
$var parameter 5 ." i $end
$upscope $end
$scope begin bit_level_pg[15] $end
$var parameter 5 /" i $end
$upscope $end
$scope begin bit_level_pg[16] $end
$var parameter 6 0" i $end
$upscope $end
$scope begin bit_level_pg[17] $end
$var parameter 6 1" i $end
$upscope $end
$scope begin bit_level_pg[18] $end
$var parameter 6 2" i $end
$upscope $end
$scope begin bit_level_pg[19] $end
$var parameter 6 3" i $end
$upscope $end
$scope begin bit_level_pg[20] $end
$var parameter 6 4" i $end
$upscope $end
$scope begin bit_level_pg[21] $end
$var parameter 6 5" i $end
$upscope $end
$scope begin bit_level_pg[22] $end
$var parameter 6 6" i $end
$upscope $end
$scope begin bit_level_pg[23] $end
$var parameter 6 7" i $end
$upscope $end
$scope begin final_sum[0] $end
$var parameter 2 8" m $end
$upscope $end
$scope begin final_sum[1] $end
$var parameter 2 9" m $end
$upscope $end
$scope begin final_sum[2] $end
$var parameter 3 :" m $end
$upscope $end
$scope begin final_sum[3] $end
$var parameter 3 ;" m $end
$upscope $end
$scope begin final_sum[4] $end
$var parameter 4 <" m $end
$upscope $end
$scope begin final_sum[5] $end
$var parameter 4 =" m $end
$upscope $end
$scope begin final_sum[6] $end
$var parameter 4 >" m $end
$upscope $end
$scope begin final_sum[7] $end
$var parameter 4 ?" m $end
$upscope $end
$scope begin final_sum[8] $end
$var parameter 5 @" m $end
$upscope $end
$scope begin final_sum[9] $end
$var parameter 5 A" m $end
$upscope $end
$scope begin final_sum[10] $end
$var parameter 5 B" m $end
$upscope $end
$scope begin final_sum[11] $end
$var parameter 5 C" m $end
$upscope $end
$scope begin final_sum[12] $end
$var parameter 5 D" m $end
$upscope $end
$scope begin final_sum[13] $end
$var parameter 5 E" m $end
$upscope $end
$scope begin final_sum[14] $end
$var parameter 5 F" m $end
$upscope $end
$scope begin final_sum[15] $end
$var parameter 5 G" m $end
$upscope $end
$scope begin final_sum[16] $end
$var parameter 6 H" m $end
$upscope $end
$scope begin final_sum[17] $end
$var parameter 6 I" m $end
$upscope $end
$scope begin final_sum[18] $end
$var parameter 6 J" m $end
$upscope $end
$scope begin final_sum[19] $end
$var parameter 6 K" m $end
$upscope $end
$scope begin final_sum[20] $end
$var parameter 6 L" m $end
$upscope $end
$scope begin final_sum[21] $end
$var parameter 6 M" m $end
$upscope $end
$scope begin final_sum[22] $end
$var parameter 6 N" m $end
$upscope $end
$scope begin final_sum[23] $end
$var parameter 6 O" m $end
$upscope $end
$scope begin group_level_pg[0] $end
$var parameter 32 P" base $end
$var parameter 2 Q" j $end
$upscope $end
$scope begin group_level_pg[1] $end
$var parameter 32 R" base $end
$var parameter 2 S" j $end
$upscope $end
$scope begin group_level_pg[2] $end
$var parameter 32 T" base $end
$var parameter 3 U" j $end
$upscope $end
$scope begin group_level_pg[3] $end
$var parameter 32 V" base $end
$var parameter 3 W" j $end
$upscope $end
$scope begin group_level_pg[4] $end
$var parameter 32 X" base $end
$var parameter 4 Y" j $end
$upscope $end
$scope begin group_level_pg[5] $end
$var parameter 32 Z" base $end
$var parameter 4 [" j $end
$upscope $end
$scope begin internal_carries[0] $end
$var parameter 32 \" base $end
$var parameter 2 ]" k $end
$upscope $end
$scope begin internal_carries[1] $end
$var parameter 32 ^" base $end
$var parameter 2 _" k $end
$upscope $end
$scope begin internal_carries[2] $end
$var parameter 32 `" base $end
$var parameter 3 a" k $end
$upscope $end
$scope begin internal_carries[3] $end
$var parameter 32 b" base $end
$var parameter 3 c" k $end
$upscope $end
$scope begin internal_carries[4] $end
$var parameter 32 d" base $end
$var parameter 4 e" k $end
$upscope $end
$scope begin internal_carries[5] $end
$var parameter 32 f" base $end
$var parameter 4 g" k $end
$upscope $end
$upscope $end
$scope module low_adder $end
$var wire 27 h" b [26:0] $end
$var wire 28 i" sum [27:0] $end
$var wire 1 j" sus $end
$var wire 27 k" a [26:0] $end
$var parameter 32 l" width $end
$upscope $end
$upscope $end
$upscope $end
$scope module gctrl_inst $end
$var wire 1 & clk $end
$var wire 1 ' inwidth $end
$var wire 1 ( rstn $end
$var wire 1 ) start $end
$var wire 1 c sus $end
$var wire 6 m" count_limit [5:0] $end
$var reg 1 n" computing $end
$var reg 6 o" sel [5:0] $end
$var reg 1 ! st $end
$upscope $end
$scope module gio_inst $end
$var wire 1 * wwidth $end
$var wire 27 p" partial_sum_out [26:0] $end
$var wire 15 q" macout_low [14:0] $end
$var wire 15 r" macout_high [14:0] $end
$var wire 27 s" high_val [26:0] $end
$var wire 28 t" combined_sum [27:0] $end
$scope module final_adder $end
$var wire 27 u" a [26:0] $end
$var wire 27 v" b [26:0] $end
$var wire 28 w" sum [27:0] $end
$var wire 1 x" sus $end
$var parameter 32 y" width $end
$upscope $end
$upscope $end
$scope module lmac_high $end
$var wire 96 z" nW0 [95:0] $end
$var wire 96 {" nW1 [95:0] $end
$var wire 1 c sus $end
$var wire 8 |" nX1 [7:0] $end
$var wire 8 }" nX0 [7:0] $end
$var wire 15 ~" mac_out [14:0] $end
$scope begin oai_array[0] $end
$var parameter 2 !# i $end
$scope module mult_inst $end
$var wire 12 "# input_c [11:0] $end
$var wire 12 ## input_d [11:0] $end
$var wire 12 $# result [11:0] $end
$var wire 12 %# weight_a [11:0] $end
$var wire 12 &# weight_b [11:0] $end
$var wire 12 '# extended_d [11:0] $end
$var wire 12 (# extended_c [11:0] $end
$upscope $end
$upscope $end
$scope begin oai_array[1] $end
$var parameter 2 )# i $end
$scope module mult_inst $end
$var wire 12 *# input_c [11:0] $end
$var wire 12 +# input_d [11:0] $end
$var wire 12 ,# result [11:0] $end
$var wire 12 -# weight_a [11:0] $end
$var wire 12 .# weight_b [11:0] $end
$var wire 12 /# extended_d [11:0] $end
$var wire 12 0# extended_c [11:0] $end
$upscope $end
$upscope $end
$scope begin oai_array[2] $end
$var parameter 3 1# i $end
$scope module mult_inst $end
$var wire 12 2# input_c [11:0] $end
$var wire 12 3# input_d [11:0] $end
$var wire 12 4# result [11:0] $end
$var wire 12 5# weight_a [11:0] $end
$var wire 12 6# weight_b [11:0] $end
$var wire 12 7# extended_d [11:0] $end
$var wire 12 8# extended_c [11:0] $end
$upscope $end
$upscope $end
$scope begin oai_array[3] $end
$var parameter 3 9# i $end
$scope module mult_inst $end
$var wire 12 :# input_c [11:0] $end
$var wire 12 ;# input_d [11:0] $end
$var wire 12 <# result [11:0] $end
$var wire 12 =# weight_a [11:0] $end
$var wire 12 ># weight_b [11:0] $end
$var wire 12 ?# extended_d [11:0] $end
$var wire 12 @# extended_c [11:0] $end
$upscope $end
$upscope $end
$scope begin oai_array[4] $end
$var parameter 4 A# i $end
$scope module mult_inst $end
$var wire 12 B# input_c [11:0] $end
$var wire 12 C# input_d [11:0] $end
$var wire 12 D# result [11:0] $end
$var wire 12 E# weight_a [11:0] $end
$var wire 12 F# weight_b [11:0] $end
$var wire 12 G# extended_d [11:0] $end
$var wire 12 H# extended_c [11:0] $end
$upscope $end
$upscope $end
$scope begin oai_array[5] $end
$var parameter 4 I# i $end
$scope module mult_inst $end
$var wire 12 J# input_c [11:0] $end
$var wire 12 K# input_d [11:0] $end
$var wire 12 L# result [11:0] $end
$var wire 12 M# weight_a [11:0] $end
$var wire 12 N# weight_b [11:0] $end
$var wire 12 O# extended_d [11:0] $end
$var wire 12 P# extended_c [11:0] $end
$upscope $end
$upscope $end
$scope begin oai_array[6] $end
$var parameter 4 Q# i $end
$scope module mult_inst $end
$var wire 12 R# input_c [11:0] $end
$var wire 12 S# input_d [11:0] $end
$var wire 12 T# result [11:0] $end
$var wire 12 U# weight_a [11:0] $end
$var wire 12 V# weight_b [11:0] $end
$var wire 12 W# extended_d [11:0] $end
$var wire 12 X# extended_c [11:0] $end
$upscope $end
$upscope $end
$scope begin oai_array[7] $end
$var parameter 4 Y# i $end
$scope module mult_inst $end
$var wire 12 Z# input_c [11:0] $end
$var wire 12 [# input_d [11:0] $end
$var wire 12 \# result [11:0] $end
$var wire 12 ]# weight_a [11:0] $end
$var wire 12 ^# weight_b [11:0] $end
$var wire 12 _# extended_d [11:0] $end
$var wire 12 `# extended_c [11:0] $end
$upscope $end
$upscope $end
$scope module add_stage1_0 $end
$var wire 1 c sus $end
$var wire 13 a# sum [12:0] $end
$var wire 12 b# b [11:0] $end
$var wire 12 c# a [11:0] $end
$var parameter 32 d# width $end
$upscope $end
$scope module add_stage1_1 $end
$var wire 1 c sus $end
$var wire 13 e# sum [12:0] $end
$var wire 12 f# b [11:0] $end
$var wire 12 g# a [11:0] $end
$var parameter 32 h# width $end
$upscope $end
$scope module add_stage1_2 $end
$var wire 1 c sus $end
$var wire 13 i# sum [12:0] $end
$var wire 12 j# b [11:0] $end
$var wire 12 k# a [11:0] $end
$var parameter 32 l# width $end
$upscope $end
$scope module add_stage1_3 $end
$var wire 1 c sus $end
$var wire 13 m# sum [12:0] $end
$var wire 12 n# b [11:0] $end
$var wire 12 o# a [11:0] $end
$var parameter 32 p# width $end
$upscope $end
$scope module add_stage2_0 $end
$var wire 13 q# a [12:0] $end
$var wire 13 r# b [12:0] $end
$var wire 1 c sus $end
$var wire 14 s# sum [13:0] $end
$var parameter 32 t# width $end
$upscope $end
$scope module add_stage2_1 $end
$var wire 13 u# a [12:0] $end
$var wire 13 v# b [12:0] $end
$var wire 1 c sus $end
$var wire 14 w# sum [13:0] $end
$var parameter 32 x# width $end
$upscope $end
$scope module add_stage3_0 $end
$var wire 14 y# a [13:0] $end
$var wire 14 z# b [13:0] $end
$var wire 1 c sus $end
$var wire 15 {# sum [14:0] $end
$var parameter 32 |# width $end
$upscope $end
$upscope $end
$scope module lmac_low $end
$var wire 96 }# nW0 [95:0] $end
$var wire 96 ~# nW1 [95:0] $end
$var wire 1 c sus $end
$var wire 8 !$ nX1 [7:0] $end
$var wire 8 "$ nX0 [7:0] $end
$var wire 15 #$ mac_out [14:0] $end
$scope begin oai_array[0] $end
$var parameter 2 $$ i $end
$scope module mult_inst $end
$var wire 12 %$ input_c [11:0] $end
$var wire 12 &$ input_d [11:0] $end
$var wire 12 '$ result [11:0] $end
$var wire 12 ($ weight_a [11:0] $end
$var wire 12 )$ weight_b [11:0] $end
$var wire 12 *$ extended_d [11:0] $end
$var wire 12 +$ extended_c [11:0] $end
$upscope $end
$upscope $end
$scope begin oai_array[1] $end
$var parameter 2 ,$ i $end
$scope module mult_inst $end
$var wire 12 -$ input_c [11:0] $end
$var wire 12 .$ input_d [11:0] $end
$var wire 12 /$ result [11:0] $end
$var wire 12 0$ weight_a [11:0] $end
$var wire 12 1$ weight_b [11:0] $end
$var wire 12 2$ extended_d [11:0] $end
$var wire 12 3$ extended_c [11:0] $end
$upscope $end
$upscope $end
$scope begin oai_array[2] $end
$var parameter 3 4$ i $end
$scope module mult_inst $end
$var wire 12 5$ input_c [11:0] $end
$var wire 12 6$ input_d [11:0] $end
$var wire 12 7$ result [11:0] $end
$var wire 12 8$ weight_a [11:0] $end
$var wire 12 9$ weight_b [11:0] $end
$var wire 12 :$ extended_d [11:0] $end
$var wire 12 ;$ extended_c [11:0] $end
$upscope $end
$upscope $end
$scope begin oai_array[3] $end
$var parameter 3 <$ i $end
$scope module mult_inst $end
$var wire 12 =$ input_c [11:0] $end
$var wire 12 >$ input_d [11:0] $end
$var wire 12 ?$ result [11:0] $end
$var wire 12 @$ weight_a [11:0] $end
$var wire 12 A$ weight_b [11:0] $end
$var wire 12 B$ extended_d [11:0] $end
$var wire 12 C$ extended_c [11:0] $end
$upscope $end
$upscope $end
$scope begin oai_array[4] $end
$var parameter 4 D$ i $end
$scope module mult_inst $end
$var wire 12 E$ input_c [11:0] $end
$var wire 12 F$ input_d [11:0] $end
$var wire 12 G$ result [11:0] $end
$var wire 12 H$ weight_a [11:0] $end
$var wire 12 I$ weight_b [11:0] $end
$var wire 12 J$ extended_d [11:0] $end
$var wire 12 K$ extended_c [11:0] $end
$upscope $end
$upscope $end
$scope begin oai_array[5] $end
$var parameter 4 L$ i $end
$scope module mult_inst $end
$var wire 12 M$ input_c [11:0] $end
$var wire 12 N$ input_d [11:0] $end
$var wire 12 O$ result [11:0] $end
$var wire 12 P$ weight_a [11:0] $end
$var wire 12 Q$ weight_b [11:0] $end
$var wire 12 R$ extended_d [11:0] $end
$var wire 12 S$ extended_c [11:0] $end
$upscope $end
$upscope $end
$scope begin oai_array[6] $end
$var parameter 4 T$ i $end
$scope module mult_inst $end
$var wire 12 U$ input_c [11:0] $end
$var wire 12 V$ input_d [11:0] $end
$var wire 12 W$ result [11:0] $end
$var wire 12 X$ weight_a [11:0] $end
$var wire 12 Y$ weight_b [11:0] $end
$var wire 12 Z$ extended_d [11:0] $end
$var wire 12 [$ extended_c [11:0] $end
$upscope $end
$upscope $end
$scope begin oai_array[7] $end
$var parameter 4 \$ i $end
$scope module mult_inst $end
$var wire 12 ]$ input_c [11:0] $end
$var wire 12 ^$ input_d [11:0] $end
$var wire 12 _$ result [11:0] $end
$var wire 12 `$ weight_a [11:0] $end
$var wire 12 a$ weight_b [11:0] $end
$var wire 12 b$ extended_d [11:0] $end
$var wire 12 c$ extended_c [11:0] $end
$upscope $end
$upscope $end
$scope module add_stage1_0 $end
$var wire 1 c sus $end
$var wire 13 d$ sum [12:0] $end
$var wire 12 e$ b [11:0] $end
$var wire 12 f$ a [11:0] $end
$var parameter 32 g$ width $end
$upscope $end
$scope module add_stage1_1 $end
$var wire 1 c sus $end
$var wire 13 h$ sum [12:0] $end
$var wire 12 i$ b [11:0] $end
$var wire 12 j$ a [11:0] $end
$var parameter 32 k$ width $end
$upscope $end
$scope module add_stage1_2 $end
$var wire 1 c sus $end
$var wire 13 l$ sum [12:0] $end
$var wire 12 m$ b [11:0] $end
$var wire 12 n$ a [11:0] $end
$var parameter 32 o$ width $end
$upscope $end
$scope module add_stage1_3 $end
$var wire 1 c sus $end
$var wire 13 p$ sum [12:0] $end
$var wire 12 q$ b [11:0] $end
$var wire 12 r$ a [11:0] $end
$var parameter 32 s$ width $end
$upscope $end
$scope module add_stage2_0 $end
$var wire 13 t$ a [12:0] $end
$var wire 13 u$ b [12:0] $end
$var wire 1 c sus $end
$var wire 14 v$ sum [13:0] $end
$var parameter 32 w$ width $end
$upscope $end
$scope module add_stage2_1 $end
$var wire 13 x$ a [12:0] $end
$var wire 13 y$ b [12:0] $end
$var wire 1 c sus $end
$var wire 14 z$ sum [13:0] $end
$var parameter 32 {$ width $end
$upscope $end
$scope module add_stage3_0 $end
$var wire 14 |$ a [13:0] $end
$var wire 14 }$ b [13:0] $end
$var wire 1 c sus $end
$var wire 15 ~$ sum [14:0] $end
$var parameter 32 !% width $end
$upscope $end
$upscope $end
$scope module rwldrv_inst $end
$var wire 1 % cima $end
$var wire 1 ' inwidth $end
$var wire 6 "% sel [5:0] $end
$var wire 192 #% xin [191:0] $end
$var wire 8 $% selected_x_bits [7:0] $end
$var wire 8 %% rwlb_row1 [7:0] $end
$var wire 8 &% rwlb_row0 [7:0] $end
$var wire 6 '% max_index [5:0] $end
$var wire 6 (% effective_index [5:0] $end
$scope begin genblk1[0] $end
$var parameter 2 )% i $end
$upscope $end
$scope begin genblk1[1] $end
$var parameter 2 *% i $end
$upscope $end
$scope begin genblk1[2] $end
$var parameter 3 +% i $end
$upscope $end
$scope begin genblk1[3] $end
$var parameter 3 ,% i $end
$upscope $end
$scope begin genblk1[4] $end
$var parameter 4 -% i $end
$upscope $end
$scope begin genblk1[5] $end
$var parameter 4 .% i $end
$upscope $end
$scope begin genblk1[6] $end
$var parameter 4 /% i $end
$upscope $end
$scope begin genblk1[7] $end
$var parameter 4 0% i $end
$upscope $end
$upscope $end
$upscope $end
$upscope $end
$scope begin $ivl_for_loop0 $end
$var integer 32 1% i [31:0] $end
$upscope $end
$scope task write_data $end
$var reg 8 2% address [7:0] $end
$var reg 24 3% data [23:0] $end
$upscope $end
$upscope $end
$enddefinitions $end
$comment Show the parameter values. $end
$dumpall
b111 0%
b110 /%
b101 .%
b100 -%
b11 ,%
b10 +%
b1 *%
b0 )%
b1110 !%
b1101 {$
b1101 w$
b1100 s$
b1100 o$
b1100 k$
b1100 g$
b111 \$
b110 T$
b101 L$
b100 D$
b11 <$
b10 4$
b1 ,$
b0 $$
b1110 |#
b1101 x#
b1101 t#
b1100 p#
b1100 l#
b1100 h#
b1100 d#
b111 Y#
b110 Q#
b101 I#
b100 A#
b11 9#
b10 1#
b1 )#
b0 !#
b11011 y"
b11011 l"
b101 g"
b10100 f"
b100 e"
b10000 d"
b11 c"
b1100 b"
b10 a"
b1000 `"
b1 _"
b100 ^"
b0 ]"
b0 \"
b101 ["
b10100 Z"
b100 Y"
b10000 X"
b11 W"
b1100 V"
b10 U"
b1000 T"
b1 S"
b100 R"
b0 Q"
b0 P"
b10111 O"
b10110 N"
b10101 M"
b10100 L"
b10011 K"
b10010 J"
b10001 I"
b10000 H"
b1111 G"
b1110 F"
b1101 E"
b1100 D"
b1011 C"
b1010 B"
b1001 A"
b1000 @"
b111 ?"
b110 >"
b101 ="
b100 <"
b11 ;"
b10 :"
b1 9"
b0 8"
b10111 7"
b10110 6"
b10101 5"
b10100 4"
b10011 3"
b10010 2"
b10001 1"
b10000 0"
b1111 /"
b1110 ."
b1101 -"
b1100 ,"
b1011 +"
b1010 *"
b1001 )"
b1000 ("
b111 '"
b110 &"
b101 %"
b100 $"
b11 #"
b10 ""
b1 !"
b0 ~
b111 ]
b110 \
b101 [
b100 Z
b11 Y
b10 X
b1 W
b0 V
b111 N
b110 M
b101 L
b100 K
b11 J
b10 I
b1 H
b0 G
$end
#0
$dumpvars
bx 3%
bx 2%
bx 1%
b1011 (%
b1011 '%
b11111111 &%
b11111111 %%
b0 $%
b0 #%
b0 "%
b0 ~$
b0 }$
b0 |$
b0 z$
b0 y$
b0 x$
b0 v$
b0 u$
b0 t$
b0 r$
b0 q$
b0 p$
b0 n$
b0 m$
b0 l$
b0 j$
b0 i$
b0 h$
b0 f$
b0 e$
b0 d$
b111111111111 c$
b111111111111 b$
bx a$
bx `$
b0 _$
b111111111111 ^$
b111111111111 ]$
b111111111111 [$
b111111111111 Z$
bx Y$
bx X$
b0 W$
b111111111111 V$
b111111111111 U$
b111111111111 S$
b111111111111 R$
bx Q$
bx P$
b0 O$
b111111111111 N$
b111111111111 M$
b111111111111 K$
b111111111111 J$
bx I$
bx H$
b0 G$
b111111111111 F$
b111111111111 E$
b111111111111 C$
b111111111111 B$
bx A$
bx @$
b0 ?$
b111111111111 >$
b111111111111 =$
b111111111111 ;$
b111111111111 :$
bx 9$
bx 8$
b0 7$
b111111111111 6$
b111111111111 5$
b111111111111 3$
b111111111111 2$
bx 1$
bx 0$
b0 /$
b111111111111 .$
b111111111111 -$
b111111111111 +$
b111111111111 *$
bx )$
bx ($
b0 '$
b111111111111 &$
b111111111111 %$
b0 #$
b11111111 "$
b11111111 !$
bx ~#
bx }#
b0 {#
b0 z#
b0 y#
b0 w#
b0 v#
b0 u#
b0 s#
b0 r#
b0 q#
b0 o#
b0 n#
b0 m#
b0 k#
b0 j#
b0 i#
b0 g#
b0 f#
b0 e#
b0 c#
b0 b#
b0 a#
b111111111111 `#
b111111111111 _#
bx ^#
bx ]#
b0 \#
b111111111111 [#
b111111111111 Z#
b111111111111 X#
b111111111111 W#
bx V#
bx U#
b0 T#
b111111111111 S#
b111111111111 R#
b111111111111 P#
b111111111111 O#
bx N#
bx M#
b0 L#
b111111111111 K#
b111111111111 J#
b111111111111 H#
b111111111111 G#
bx F#
bx E#
b0 D#
b111111111111 C#
b111111111111 B#
b111111111111 @#
b111111111111 ?#
bx >#
bx =#
b0 <#
b111111111111 ;#
b111111111111 :#
b111111111111 8#
b111111111111 7#
bx 6#
bx 5#
b0 4#
b111111111111 3#
b111111111111 2#
b111111111111 0#
b111111111111 /#
bx .#
bx -#
b0 ,#
b111111111111 +#
b111111111111 *#
b111111111111 (#
b111111111111 '#
bx &#
bx %#
b0 $#
b111111111111 ##
b111111111111 "#
b0 ~"
b11111111 }"
b11111111 |"
bx {"
bx z"
1x"
b0 w"
b0 v"
b0 u"
b0 t"
b0 s"
b0 r"
b0 q"
b0 p"
b0 o"
0n"
b1011 m"
b0 k"
1j"
b0 i"
b0 h"
b0 }
b0 |
bz000000000000000000000000 {
b0 z
b0 y
b0 x
b0 w
b0 v
b0 u
b0 t
b0 s
0r
b0 q
b0 p
b0 o
b0 n
b0 m
b0 l
b0 k
b0 j
b0 i
b11111111 h
b11111111 g
b0 f
b0 e
b0 d
0c
b0 b
bx a
bx `
bx _
bx ^
bx U
bx T
bx S
bx R
bx Q
b0 P
b0 O
bx F
bx E
bx D
bx C
bx B
b0 A
b0 @
bx ?
bx >
bx =
bx <
b0 ;
b0 :
b0 9
b0 8
b0 7
b0 6
bx 5
bx 4
bx 3
bx 2
b0 1
b0 0
b0 /
b0 .
b0 -
b0 ,
b0 +
0*
0)
0(
0'
0&
0%
b0 $
b0 #
b0 "
1!
$end
#5000
b1000 F
b1000 U
1&
#10000
0&
1(
#15000
b1000 U
b1000 F
1&
#20000
0&
b1001 3%
b1 2%
b0 1%
#25000
b1 0
b1 8
b1 :
b1 A
b1000 F
b1000 U
b1001 #
b1001 ,
b1001 9
b1001 @
b1001 O
b1 $
b1 -
b1 6
1&
#30000
0&
#35000
b111111110110 ($
b111111111111 %#
bx111111110110 4
bx111111110110 >
bx111111110110 C
bx111111110110 _
bx111111110110 }#
bx111111111111 5
bx111111111111 ?
bx111111111111 B
bx111111111111 ^
bx111111111111 z"
bx000000001001 D
bx000000000000 E
b1000 U
b1000 F
1&
#40000
0&
#45000
b111111110101 ($
bx111111110101 4
bx111111110101 >
bx111111110101 C
bx111111110101 _
bx111111110101 }#
bx000000001010 D
b10 0
b10 8
b10 :
b10 A
b1000 F
b1000 U
b1010 #
b1010 ,
b1010 9
b1010 @
b1010 O
b10 $
b10 -
b10 6
1&
b1010 3%
b10 2%
b1 1%
#50000
0&
#55000
b111111110101 0$
b111111111111 -#
bx111111110101111111110101 4
bx111111110101111111110101 >
bx111111110101111111110101 C
bx111111110101111111110101 _
bx111111110101111111110101 }#
bx111111111111111111111111 5
bx111111111111111111111111 ?
bx111111111111111111111111 B
bx111111111111111111111111 ^
bx111111111111111111111111 z"
bx000000001010000000001010 D
bx000000000000000000000000 E
b1000 U
b1000 F
1&
#60000
0&
#65000
b111111110100 0$
bx111111110100111111110101 4
bx111111110100111111110101 >
bx111111110100111111110101 C
bx111111110100111111110101 _
bx111111110100111111110101 }#
bx000000001011000000001010 D
b100 0
b100 8
b100 :
b100 A
b1000 F
b1000 U
b1011 #
b1011 ,
b1011 9
b1011 @
b1011 O
b100 $
b100 -
b100 6
1&
b1011 3%
b100 2%
b10 1%
#70000
0&
#75000
b111111110100 8$
b111111111111 5#
bx111111110100111111110100111111110101 4
bx111111110100111111110100111111110101 >
bx111111110100111111110100111111110101 C
bx111111110100111111110100111111110101 _
bx111111110100111111110100111111110101 }#
bx111111111111111111111111111111111111 5
bx111111111111111111111111111111111111 ?
bx111111111111111111111111111111111111 B
bx111111111111111111111111111111111111 ^
bx111111111111111111111111111111111111 z"
bx000000001011000000001011000000001010 D
bx000000000000000000000000000000000000 E
b1000 U
b1000 F
1&
#80000
0&
