DCIM_Macro/tb_cim_array.vcd
$date
	Fri Aug 08 19:21:05 2025
$end
$version
	Icarus Verilog
$end
$timescale
	1ps
$end
$scope module tb_cim_array $end
$var wire 96 ! wb1_b [95:0] $end
$var wire 96 " wb1_a [95:0] $end
$var wire 96 # wb0_b [95:0] $end
$var wire 96 $ wb0_a [95:0] $end
$var reg 24 % D [23:0] $end
$var reg 8 & WA0 [7:0] $end
$var reg 8 ' WA1 [7:0] $end
$var integer 32 ( i [31:0] $end
$scope module uut $end
$var wire 24 ) D [23:0] $end
$var wire 8 * WA0 [7:0] $end
$var wire 8 + WA1 [7:0] $end
$var wire 96 , wb1_b [95:0] $end
$var wire 96 - wb1_a [95:0] $end
$var wire 96 . wb0_b [95:0] $end
$var wire 96 / wb0_a [95:0] $end
$scope module bank0_inst $end
$var wire 24 0 D [23:0] $end
$var wire 8 1 WA [7:0] $end
$var wire 96 2 wb_a [95:0] $end
$var wire 96 3 wb_b [95:0] $end
$upscope $end
$scope module bank1_inst $end
$var wire 24 4 D [23:0] $end
$var wire 8 5 WA [7:0] $end
$var wire 96 6 wb_a [95:0] $end
$var wire 96 7 wb_b [95:0] $end
$upscope $end
$upscope $end
$upscope $end
$enddefinitions $end
$comment Show the parameter values. $end
$dumpall
$end
#0
$dumpvars
bx 7
bx 6
b0 5
b0 4
bx 3
bx 2
b0 1
b0 0
bx /
bx .
bx -
bx ,
b0 +
b0 *
b0 )
bx (
b0 '
b0 &
b0 %
bx $
bx #
bx "
bx !
$end
#1000
bx010111111111 $
bx010111111111 /
bx010111111111 2
bx111111111111 #
bx111111111111 .
bx111111111111 3
b101000000000 %
b101000000000 )
b101000000000 0
b101000000000 4
b1 &
b1 *
b1 1
b0 (
#11000
bx010111111110010111111111 $
bx010111111110010111111111 /
bx010111111110010111111111 2
bx111111111111111111111111 #
bx111111111111111111111111 .
bx111111111111111111111111 3
b101000000001 %
b101000000001 )
b101000000001 0
b101000000001 4
b10 &
b10 *
b10 1
b1 (
#21000
bx010111111101010111111110010111111111 $
bx010111111101010111111110010111111111 /
bx010111111101010111111110010111111111 2
bx111111111111111111111111111111111111 #
bx111111111111111111111111111111111111 .
bx111111111111111111111111111111111111 3
b101000000010 %
b101000000010 )
b101000000010 0
b101000000010 4
b100 &
b100 *
b100 1
b10 (
#31000
bx010111111100010111111101010111111110010111111111 $
bx010111111100010111111101010111111110010111111111 /
bx010111111100010111111101010111111110010111111111 2
bx111111111111111111111111111111111111111111111111 #
bx111111111111111111111111111111111111111111111111 .
bx111111111111111111111111111111111111111111111111 3
b101000000011 %
b101000000011 )
b101000000011 0
b101000000011 4
b1000 &
b1000 *
b1000 1
b11 (
#41000
bx010111111011010111111100010111111101010111111110010111111111 $
bx010111111011010111111100010111111101010111111110010111111111 /
bx010111111011010111111100010111111101010111111110010111111111 2
bx111111111111111111111111111111111111111111111111111111111111 #
bx111111111111111111111111111111111111111111111111111111111111 .
bx111111111111111111111111111111111111111111111111111111111111 3
b101000000100 %
b101000000100 )
b101000000100 0
b101000000100 4
b10000 &
b10000 *
b10000 1
b100 (
#51000
bx010111111010010111111011010111111100010111111101010111111110010111111111 $
bx010111111010010111111011010111111100010111111101010111111110010111111111 /
bx010111111010010111111011010111111100010111111101010111111110010111111111 2
bx111111111111111111111111111111111111111111111111111111111111111111111111 #
bx111111111111111111111111111111111111111111111111111111111111111111111111 .
bx111111111111111111111111111111111111111111111111111111111111111111111111 3
b101000000101 %
b101000000101 )
b101000000101 0
b101000000101 4
b100000 &
b100000 *
b100000 1
b101 (
#61000
bx010111111001010111111010010111111011010111111100010111111101010111111110010111111111 $
bx010111111001010111111010010111111011010111111100010111111101010111111110010111111111 /
bx010111111001010111111010010111111011010111111100010111111101010111111110010111111111 2
bx111111111111111111111111111111111111111111111111111111111111111111111111111111111111 #
bx111111111111111111111111111111111111111111111111111111111111111111111111111111111111 .
bx111111111111111111111111111111111111111111111111111111111111111111111111111111111111 3
b101000000110 %
b101000000110 )
b101000000110 0
b101000000110 4
b1000000 &
b1000000 *
b1000000 1
b110 (
#71000
b10111111000010111111001010111111010010111111011010111111100010111111101010111111110010111111111 $
b10111111000010111111001010111111010010111111011010111111100010111111101010111111110010111111111 /
b10111111000010111111001010111111010010111111011010111111100010111111101010111111110010111111111 2
b111111111111111111111111111111111111111111111111111111111111111111111111111111111111111111111111 #
b111111111111111111111111111111111111111111111111111111111111111111111111111111111111111111111111 .
b111111111111111111111111111111111111111111111111111111111111111111111111111111111111111111111111 3
b101000000111 %
b101000000111 )
b101000000111 0
b101000000111 4
b10000000 &
b10000000 *
b10000000 1
b111 (
#81000
b0 &
b0 *
b0 1
b1000 (
#91000
bx010011111111 "
bx010011111111 -
bx010011111111 6
bx111111111111 !
bx111111111111 ,
bx111111111111 7
b101100000000 %
b101100000000 )
b101100000000 0
b101100000000 4
b1 '
b1 +
b1 5
b0 (
#101000
bx010011111110010011111111 "
bx010011111110010011111111 -
bx010011111110010011111111 6
bx111111111111111111111111 !
bx111111111111111111111111 ,
bx111111111111111111111111 7
b101100000001 %
b101100000001 )
b101100000001 0
b101100000001 4
b10 '
b10 +
b10 5
b1 (
#111000
bx010011111101010011111110010011111111 "
bx010011111101010011111110010011111111 -
bx010011111101010011111110010011111111 6
bx111111111111111111111111111111111111 !
bx111111111111111111111111111111111111 ,
bx111111111111111111111111111111111111 7
b101100000010 %
b101100000010 )
b101100000010 0
b101100000010 4
b100 '
b100 +
b100 5
b10 (
#121000
bx010011111100010011111101010011111110010011111111 "
bx010011111100010011111101010011111110010011111111 -
bx010011111100010011111101010011111110010011111111 6
bx111111111111111111111111111111111111111111111111 !
bx111111111111111111111111111111111111111111111111 ,
bx111111111111111111111111111111111111111111111111 7
b101100000011 %
b101100000011 )
b101100000011 0
b101100000011 4
b1000 '
b1000 +
b1000 5
b11 (
#131000
bx010011111011010011111100010011111101010011111110010011111111 "
bx010011111011010011111100010011111101010011111110010011111111 -
bx010011111011010011111100010011111101010011111110010011111111 6
bx111111111111111111111111111111111111111111111111111111111111 !
bx111111111111111111111111111111111111111111111111111111111111 ,
bx111111111111111111111111111111111111111111111111111111111111 7
b101100000100 %
b101100000100 )
b101100000100 0
b101100000100 4
b10000 '
b10000 +
b10000 5
b100 (
#141000
bx010011111010010011111011010011111100010011111101010011111110010011111111 "
bx010011111010010011111011010011111100010011111101010011111110010011111111 -
bx010011111010010011111011010011111100010011111101010011111110010011111111 6
bx111111111111111111111111111111111111111111111111111111111111111111111111 !
bx111111111111111111111111111111111111111111111111111111111111111111111111 ,
bx111111111111111111111111111111111111111111111111111111111111111111111111 7
b101100000101 %
b101100000101 )
b101100000101 0
b101100000101 4
b100000 '
b100000 +
b100000 5
b101 (
#151000
bx010011111001010011111010010011111011010011111100010011111101010011111110010011111111 "
bx010011111001010011111010010011111011010011111100010011111101010011111110010011111111 -
bx010011111001010011111010010011111011010011111100010011111101010011111110010011111111 6
bx111111111111111111111111111111111111111111111111111111111111111111111111111111111111 !
bx111111111111111111111111111111111111111111111111111111111111111111111111111111111111 ,
bx111111111111111111111111111111111111111111111111111111111111111111111111111111111111 7
b101100000110 %
b101100000110 )
b101100000110 0
b101100000110 4
b1000000 '
b1000000 +
b1000000 5
b110 (
#161000
b10011111000010011111001010011111010010011111011010011111100010011111101010011111110010011111111 "
b10011111000010011111001010011111010010011111011010011111100010011111101010011111110010011111111 -
b10011111000010011111001010011111010010011111011010011111100010011111101010011111110010011111111 6
b111111111111111111111111111111111111111111111111111111111111111111111111111111111111111111111111 !
b111111111111111111111111111111111111111111111111111111111111111111111111111111111111111111111111 ,
b111111111111111111111111111111111111111111111111111111111111111111111111111111111111111111111111 7
b101100000111 %
b101100000111 )
b101100000111 0
b101100000111 4
b10000000 '
b10000000 +
b10000000 5
b111 (
#171000
b0 '
b0 +
b0 5
b1000 (
#181000
b10111111000010111111001010111111010010111111011001001000001010111111101010111111110010111111111 $
b10111111000010111111001010111111010010111111011001001000001010111111101010111111110010111111111 /
b10111111000010111111001010111111010010111111011001001000001010111111101010111111110010111111111 2
b111111111111111111111111111111111111111111111111001000010101111111111111111111111111111111111111 #
b111111111111111111111111111111111111111111111111001000010101111111111111111111111111111111111111 .
b111111111111111111111111111111111111111111111111001000010101111111111111111111111111111111111111 3
b110111101010110110111110 %
b110111101010110110111110 )
b110111101010110110111110 0
b110111101010110110111110 4
b1000 &
b1000 *
b1000 1
#191000
b0 &
b0 *
b0 1
