DCIM_Macro/tb_cim_bank.vcd
$date
	Fri Aug 08 23:37:35 2025
$end
$version
	Icarus Verilog
$end
$timescale
	1ps
$end
$scope module tb_cim_bank $end
$var wire 96 ! wb_b [95:0] $end
$var wire 96 " wb_a [95:0] $end
$var reg 24 # D [23:0] $end
$var reg 8 $ WA [7:0] $end
$var integer 32 % golden_file [31:0] $end
$var integer 32 & i [31:0] $end
$scope module uut $end
$var wire 24 ' D [23:0] $end
$var wire 8 ( WA [7:0] $end
$var wire 96 ) wb_a [95:0] $end
$var wire 96 * wb_b [95:0] $end
$var integer 32 + i [31:0] $end
$upscope $end
$upscope $end
$enddefinitions $end
$comment Show the parameter values. $end
$dumpall
$end
#0
$dumpvars
b1000 +
b111111111111111111111111111111111111111111111111111111111111111111111111111111111111111111111111 *
b111111111111111111111111111111111111111111111111111111111111111111111111111111111111111111111111 )
b0 (
b0 '
bx &
b10000000000000000000000000000011 %
b0 $
b0 #
b111111111111111111111111111111111111111111111111111111111111111111111111111111111111111111111111 "
b111111111111111111111111111111111111111111111111111111111111111111111111111111111111111111111111 !
$end
#1000
b111111111111111111111111111111111111111111111111111111111111111111111111111111111111010111111111 "
b111111111111111111111111111111111111111111111111111111111111111111111111111111111111010111111111 )
b101000000000 #
b101000000000 '
b1 $
b1 (
b0 &
#11000
b111111111111111111111111111111111111111111111111111111111111111111111111010111111110010111111111 "
b111111111111111111111111111111111111111111111111111111111111111111111111010111111110010111111111 )
b101000000001 #
b101000000001 '
b10 $
b10 (
b1 &
#21000
b111111111111111111111111111111111111111111111111111111111111010111111101010111111110010111111111 "
b111111111111111111111111111111111111111111111111111111111111010111111101010111111110010111111111 )
b101000000010 #
b101000000010 '
b100 $
b100 (
b10 &
#31000
b111111111111111111111111111111111111111111111111010111111100010111111101010111111110010111111111 "
b111111111111111111111111111111111111111111111111010111111100010111111101010111111110010111111111 )
b101000000011 #
b101000000011 '
b1000 $
b1000 (
b11 &
#41000
b111111111111111111111111111111111111010111111011010111111100010111111101010111111110010111111111 "
b111111111111111111111111111111111111010111111011010111111100010111111101010111111110010111111111 )
b101000000100 #
b101000000100 '
b10000 $
b10000 (
b100 &
#51000
b111111111111111111111111010111111010010111111011010111111100010111111101010111111110010111111111 "
b111111111111111111111111010111111010010111111011010111111100010111111101010111111110010111111111 )
b101000000101 #
b101000000101 '
b100000 $
b100000 (
b101 &
#61000
b111111111111010111111001010111111010010111111011010111111100010111111101010111111110010111111111 "
b111111111111010111111001010111111010010111111011010111111100010111111101010111111110010111111111 )
b101000000110 #
b101000000110 '
b1000000 $
b1000000 (
b110 &
#71000
b10111111000010111111001010111111010010111111011010111111100010111111101010111111110010111111111 "
b10111111000010111111001010111111010010111111011010111111100010111111101010111111110010111111111 )
b101000000111 #
b101000000111 '
b10000000 $
b10000000 (
b111 &
#81000
b0 $
b0 (
b1000 &
#91000
b10111111000010111111001010111111010001001000001010111111100010111111101010111111110010111111111 "
b10111111000010111111001010111111010001001000001010111111100010111111101010111111110010111111111 )
b111111111111111111111111111111111111001000010101111111111111111111111111111111111111111111111111 !
b111111111111111111111111111111111111001000010101111111111111111111111111111111111111111111111111 *
b110111101010110110111110 #
b110111101010110110111110 '
b10000 $
b10000 (
#101000
b0 $
b0 (
#111000
b111111111111111111111111 #
b111111111111111111111111 '
