DCIM_Macro/tb_comprehensive.vcd
$date
	Mon Jul 28 20:41:30 2025
$end
$version
	Icarus Verilog
$end
$timescale
	1ps
$end
$scope module tb_comprehensive $end
$var wire 1 ! st $end
$var wire 51 " nout [50:0] $end
$var reg 24 # D [23:0] $end
$var reg 8 $ WA [7:0] $end
$var reg 1 % acm_en $end
$var reg 1 & cima $end
$var reg 1 ' clk $end
$var reg 1 ( inwidth $end
$var reg 1 ) rstn $end
$var reg 1 * start $end
$var reg 1 + wwidth $end
$var reg 192 , xin0 [191:0] $end
$var integer 32 - pass_count [31:0] $end
$var integer 32 . test_count [31:0] $end
$scope module dut $end
$var wire 24 / D [23:0] $end
$var wire 8 0 WA [7:0] $end
$var wire 1 % acm_en $end
$var wire 1 & cima $end
$var wire 1 ' clk $end
$var wire 1 ( inwidth $end
$var wire 1 ) rstn $end
$var wire 1 * start $end
$var wire 1 + wwidth $end
$var wire 192 1 xin0 [191:0] $end
$var wire 96 2 wb1_b [95:0] $end
$var wire 96 3 wb1_a [95:0] $end
$var wire 96 4 wb0_b [95:0] $end
$var wire 96 5 wb0_a [95:0] $end
$var wire 1 6 sus $end
$var wire 1 ! st $end
$var wire 6 7 sel [5:0] $end
$var wire 8 8 rwlb_row1 [7:0] $end
$var wire 8 9 rwlb_row0 [7:0] $end
$var wire 51 : nout [50:0] $end
$var wire 15 ; macout_b [14:0] $end
$var wire 15 < macout_a [14:0] $end
$var wire 8 = WA1 [7:0] $end
$var wire 8 > WA0 [7:0] $end
$var wire 24 ? D1 [23:0] $end
$scope module array_inst $end
$var wire 96 @ wb1_b [95:0] $end
$var wire 96 A wb1_a [95:0] $end
$var wire 96 B wb0_b [95:0] $end
$var wire 96 C wb0_a [95:0] $end
$var wire 8 D rwlb_row1 [7:0] $end
$var wire 8 E rwlb_row0 [7:0] $end
$var wire 8 F WA1 [7:0] $end
$var wire 8 G WA0 [7:0] $end
$var wire 24 H D [23:0] $end
$scope module bank0_inst $end
$var wire 8 I rwlb_row1 [7:0] $end
$var wire 8 J rwlb_row0 [7:0] $end
$var wire 8 K WA [7:0] $end
$var wire 24 L D [23:0] $end
$var reg 96 M wb_a [95:0] $end
$var reg 96 N wb_b [95:0] $end
$scope begin $ivl_for_loop0 $end
$var integer 32 O i [31:0] $end
$upscope $end
$scope begin $ivl_for_loop1 $end
$var integer 32 P j [31:0] $end
$upscope $end
$upscope $end
$scope module bank1_inst $end
$var wire 8 Q rwlb_row1 [7:0] $end
$var wire 8 R rwlb_row0 [7:0] $end
$var wire 8 S WA [7:0] $end
$var wire 24 T D [23:0] $end
$var reg 96 U wb_a [95:0] $end
$var reg 96 V wb_b [95:0] $end
$scope begin $ivl_for_loop0 $end
$var integer 32 W i [31:0] $end
$upscope $end
$scope begin $ivl_for_loop1 $end
$var integer 32 X j [31:0] $end
$upscope $end
$upscope $end
$upscope $end
$scope module ctrl_inst $end
$var wire 24 Y D [23:0] $end
$var wire 8 Z WA [7:0] $end
$var wire 1 & cima $end
$var reg 24 [ D1 [23:0] $end
$var reg 8 \ WA0 [7:0] $end
$var reg 8 ] WA1 [7:0] $end
$upscope $end
$scope module gctrl_inst $end
$var wire 1 ' clk $end
$var wire 1 ( inwidth $end
$var wire 1 ) rstn $end
$var wire 1 * start $end
$var wire 6 ^ max_count [5:0] $end
$var parameter 2 _ COUNT $end
$var parameter 2 ` DONE $end
$var parameter 2 a IDLE $end
$var reg 6 b sel [5:0] $end
$var reg 1 ! st $end
$var reg 2 c state [1:0] $end
$upscope $end
$scope module global_io_inst $end
$var wire 1 % acm_en $end
$var wire 1 ' clk $end
$var wire 1 ) rstn $end
$var wire 1 ! st $end
$var wire 1 + wwidth $end
$var wire 51 d nout [50:0] $end
$var wire 15 e macout_b_shifted [14:0] $end
$var wire 15 f macout_b [14:0] $end
$var wire 15 g macout_a [14:0] $end
$var wire 27 h add_out [26:0] $end
$scope module acc_inst $end
$var wire 27 i a [26:0] $end
$var wire 1 % acm_en $end
$var wire 1 ' clk $end
$var wire 1 ) rstn $end
$var wire 1 ! st $end
$var wire 51 j nout [50:0] $end
$var reg 51 k nout_1 [50:0] $end
$scope module se_cla_inst $end
$var wire 27 l a [26:0] $end
$var wire 51 m b [50:0] $end
$var wire 27 n sum_low [26:0] $end
$var wire 24 o sum_high [23:0] $end
$var wire 51 p sum [50:0] $end
$var wire 1 q carry_out $end
$var wire 51 r a_ext [50:0] $end
$scope module add_low $end
$var wire 27 s a [26:0] $end
$var wire 28 t a_signed [27:0] $end
$var wire 27 u b [26:0] $end
$var wire 28 v b_signed [27:0] $end
$var wire 1 w sus $end
$var wire 28 x sum [27:0] $end
$var parameter 32 y width $end
$upscope $end
$scope module s_cla_inst $end
$var wire 24 z a [23:0] $end
$var wire 24 { b [23:0] $end
$var wire 1 q cin $end
$var wire 24 | g [23:0] $end
$var wire 24 } p [23:0] $end
$var wire 24 ~ sum [23:0] $end
$var wire 25 !" c [24:0] $end
$scope begin carry_gen[8] $end
$var parameter 5 "" i $end
$upscope $end
$scope begin carry_gen[9] $end
$var parameter 5 #" i $end
$upscope $end
$scope begin carry_gen[10] $end
$var parameter 5 $" i $end
$upscope $end
$scope begin carry_gen[11] $end
$var parameter 5 %" i $end
$upscope $end
$scope begin carry_gen[12] $end
$var parameter 5 &" i $end
$upscope $end
$scope begin carry_gen[13] $end
$var parameter 5 '" i $end
$upscope $end
$scope begin carry_gen[14] $end
$var parameter 5 (" i $end
$upscope $end
$scope begin carry_gen[15] $end
$var parameter 5 )" i $end
$upscope $end
$scope begin carry_gen[16] $end
$var parameter 6 *" i $end
$upscope $end
$scope begin carry_gen[17] $end
$var parameter 6 +" i $end
$upscope $end
$scope begin carry_gen[18] $end
$var parameter 6 ," i $end
$upscope $end
$scope begin carry_gen[19] $end
$var parameter 6 -" i $end
$upscope $end
$scope begin carry_gen[20] $end
$var parameter 6 ." i $end
$upscope $end
$scope begin carry_gen[21] $end
$var parameter 6 /" i $end
$upscope $end
$scope begin carry_gen[22] $end
$var parameter 6 0" i $end
$upscope $end
$scope begin carry_gen[23] $end
$var parameter 6 1" i $end
$upscope $end
$upscope $end
$upscope $end
$upscope $end
$scope module add_inst $end
$var wire 16 2" a_signed [15:0] $end
$var wire 15 3" b [14:0] $end
$var wire 16 4" b_signed [15:0] $end
$var wire 1 5" sus $end
$var wire 16 6" sum [15:0] $end
$var wire 15 7" a [14:0] $end
$var parameter 32 8" width $end
$upscope $end
$upscope $end
$scope module mac0_inst $end
$var wire 1 6 sus $end
$var wire 96 9" wb0 [95:0] $end
$var wire 96 :" wb1 [95:0] $end
$var wire 8 ;" rwlb_row1 [7:0] $end
$var wire 8 <" rwlb_row0 [7:0] $end
$var wire 15 =" mac_out [14:0] $end
$scope module add1_0 $end
$var wire 1 6 sus $end
$var wire 13 >" sum [12:0] $end
$var wire 13 ?" b_signed [12:0] $end
$var wire 12 @" b [11:0] $end
$var wire 13 A" a_signed [12:0] $end
$var wire 12 B" a [11:0] $end
$var parameter 32 C" width $end
$upscope $end
$scope module add1_1 $end
$var wire 1 6 sus $end
$var wire 13 D" sum [12:0] $end
$var wire 13 E" b_signed [12:0] $end
$var wire 12 F" b [11:0] $end
$var wire 13 G" a_signed [12:0] $end
$var wire 12 H" a [11:0] $end
$var parameter 32 I" width $end
$upscope $end
$scope module add1_2 $end
$var wire 1 6 sus $end
$var wire 13 J" sum [12:0] $end
$var wire 13 K" b_signed [12:0] $end
$var wire 12 L" b [11:0] $end
$var wire 13 M" a_signed [12:0] $end
$var wire 12 N" a [11:0] $end
$var parameter 32 O" width $end
$upscope $end
$scope module add1_3 $end
$var wire 1 6 sus $end
$var wire 13 P" sum [12:0] $end
$var wire 13 Q" b_signed [12:0] $end
$var wire 12 R" b [11:0] $end
$var wire 13 S" a_signed [12:0] $end
$var wire 12 T" a [11:0] $end
$var parameter 32 U" width $end
$upscope $end
$scope module add2_0 $end
$var wire 13 V" a [12:0] $end
$var wire 13 W" b [12:0] $end
$var wire 1 6 sus $end
$var wire 14 X" sum [13:0] $end
$var wire 14 Y" b_signed [13:0] $end
$var wire 14 Z" a_signed [13:0] $end
$var parameter 32 [" width $end
$upscope $end
$scope module add2_1 $end
$var wire 13 \" a [12:0] $end
$var wire 13 ]" b [12:0] $end
$var wire 1 6 sus $end
$var wire 14 ^" sum [13:0] $end
$var wire 14 _" b_signed [13:0] $end
$var wire 14 `" a_signed [13:0] $end
$var parameter 32 a" width $end
$upscope $end
$scope module add3_0 $end
$var wire 14 b" a [13:0] $end
$var wire 14 c" b [13:0] $end
$var wire 1 6 sus $end
$var wire 15 d" sum [14:0] $end
$var wire 15 e" b_signed [14:0] $end
$var wire 15 f" a_signed [14:0] $end
$var parameter 32 g" width $end
$upscope $end
$scope module mult0 $end
$var wire 12 h" a [11:0] $end
$var wire 12 i" b [11:0] $end
$var wire 1 j" c $end
$var wire 1 k" d $end
$var wire 12 l" e [11:0] $end
$var wire 12 m" d_ext [11:0] $end
$var wire 12 n" c_ext [11:0] $end
$upscope $end
$scope module mult1 $end
$var wire 12 o" a [11:0] $end
$var wire 12 p" b [11:0] $end
$var wire 1 q" c $end
$var wire 1 r" d $end
$var wire 12 s" e [11:0] $end
$var wire 12 t" d_ext [11:0] $end
$var wire 12 u" c_ext [11:0] $end
$upscope $end
$scope module mult2 $end
$var wire 12 v" a [11:0] $end
$var wire 12 w" b [11:0] $end
$var wire 1 x" c $end
$var wire 1 y" d $end
$var wire 12 z" e [11:0] $end
$var wire 12 {" d_ext [11:0] $end
$var wire 12 |" c_ext [11:0] $end
$upscope $end
$scope module mult3 $end
$var wire 12 }" a [11:0] $end
$var wire 12 ~" b [11:0] $end
$var wire 1 !# c $end
$var wire 1 "# d $end
$var wire 12 ## e [11:0] $end
$var wire 12 $# d_ext [11:0] $end
$var wire 12 %# c_ext [11:0] $end
$upscope $end
$scope module mult4 $end
$var wire 12 &# a [11:0] $end
$var wire 12 '# b [11:0] $end
$var wire 1 (# c $end
$var wire 1 )# d $end
$var wire 12 *# e [11:0] $end
$var wire 12 +# d_ext [11:0] $end
$var wire 12 ,# c_ext [11:0] $end
$upscope $end
$scope module mult5 $end
$var wire 12 -# a [11:0] $end
$var wire 12 .# b [11:0] $end
$var wire 1 /# c $end
$var wire 1 0# d $end
$var wire 12 1# e [11:0] $end
$var wire 12 2# d_ext [11:0] $end
$var wire 12 3# c_ext [11:0] $end
$upscope $end
$scope module mult6 $end
$var wire 12 4# a [11:0] $end
$var wire 12 5# b [11:0] $end
$var wire 1 6# c $end
$var wire 1 7# d $end
$var wire 12 8# e [11:0] $end
$var wire 12 9# d_ext [11:0] $end
$var wire 12 :# c_ext [11:0] $end
$upscope $end
$scope module mult7 $end
$var wire 12 ;# a [11:0] $end
$var wire 12 <# b [11:0] $end
$var wire 1 =# c $end
$var wire 1 ># d $end
$var wire 12 ?# e [11:0] $end
$var wire 12 @# d_ext [11:0] $end
$var wire 12 A# c_ext [11:0] $end
$upscope $end
$upscope $end
$scope module mac1_inst $end
$var wire 1 6 sus $end
$var wire 96 B# wb0 [95:0] $end
$var wire 96 C# wb1 [95:0] $end
$var wire 8 D# rwlb_row1 [7:0] $end
$var wire 8 E# rwlb_row0 [7:0] $end
$var wire 15 F# mac_out [14:0] $end
$scope module add1_0 $end
$var wire 1 6 sus $end
$var wire 13 G# sum [12:0] $end
$var wire 13 H# b_signed [12:0] $end
$var wire 12 I# b [11:0] $end
$var wire 13 J# a_signed [12:0] $end
$var wire 12 K# a [11:0] $end
$var parameter 32 L# width $end
$upscope $end
$scope module add1_1 $end
$var wire 1 6 sus $end
$var wire 13 M# sum [12:0] $end
$var wire 13 N# b_signed [12:0] $end
$var wire 12 O# b [11:0] $end
$var wire 13 P# a_signed [12:0] $end
$var wire 12 Q# a [11:0] $end
$var parameter 32 R# width $end
$upscope $end
$scope module add1_2 $end
$var wire 1 6 sus $end
$var wire 13 S# sum [12:0] $end
$var wire 13 T# b_signed [12:0] $end
$var wire 12 U# b [11:0] $end
$var wire 13 V# a_signed [12:0] $end
$var wire 12 W# a [11:0] $end
$var parameter 32 X# width $end
$upscope $end
$scope module add1_3 $end
$var wire 1 6 sus $end
$var wire 13 Y# sum [12:0] $end
$var wire 13 Z# b_signed [12:0] $end
$var wire 12 [# b [11:0] $end
$var wire 13 \# a_signed [12:0] $end
$var wire 12 ]# a [11:0] $end
$var parameter 32 ^# width $end
$upscope $end
$scope module add2_0 $end
$var wire 13 _# a [12:0] $end
$var wire 13 `# b [12:0] $end
$var wire 1 6 sus $end
$var wire 14 a# sum [13:0] $end
$var wire 14 b# b_signed [13:0] $end
$var wire 14 c# a_signed [13:0] $end
$var parameter 32 d# width $end
$upscope $end
$scope module add2_1 $end
$var wire 13 e# a [12:0] $end
$var wire 13 f# b [12:0] $end
$var wire 1 6 sus $end
$var wire 14 g# sum [13:0] $end
$var wire 14 h# b_signed [13:0] $end
$var wire 14 i# a_signed [13:0] $end
$var parameter 32 j# width $end
$upscope $end
$scope module add3_0 $end
$var wire 14 k# a [13:0] $end
$var wire 14 l# b [13:0] $end
$var wire 1 6 sus $end
$var wire 15 m# sum [14:0] $end
$var wire 15 n# b_signed [14:0] $end
$var wire 15 o# a_signed [14:0] $end
$var parameter 32 p# width $end
$upscope $end
$scope module mult0 $end
$var wire 12 q# a [11:0] $end
$var wire 12 r# b [11:0] $end
$var wire 1 s# c $end
$var wire 1 t# d $end
$var wire 12 u# e [11:0] $end
$var wire 12 v# d_ext [11:0] $end
$var wire 12 w# c_ext [11:0] $end
$upscope $end
$scope module mult1 $end
$var wire 12 x# a [11:0] $end
$var wire 12 y# b [11:0] $end
$var wire 1 z# c $end
$var wire 1 {# d $end
$var wire 12 |# e [11:0] $end
$var wire 12 }# d_ext [11:0] $end
$var wire 12 ~# c_ext [11:0] $end
$upscope $end
$scope module mult2 $end
$var wire 12 !$ a [11:0] $end
$var wire 12 "$ b [11:0] $end
$var wire 1 #$ c $end
$var wire 1 $$ d $end
$var wire 12 %$ e [11:0] $end
$var wire 12 &$ d_ext [11:0] $end
$var wire 12 '$ c_ext [11:0] $end
$upscope $end
$scope module mult3 $end
$var wire 12 ($ a [11:0] $end
$var wire 12 )$ b [11:0] $end
$var wire 1 *$ c $end
$var wire 1 +$ d $end
$var wire 12 ,$ e [11:0] $end
$var wire 12 -$ d_ext [11:0] $end
$var wire 12 .$ c_ext [11:0] $end
$upscope $end
$scope module mult4 $end
$var wire 12 /$ a [11:0] $end
$var wire 12 0$ b [11:0] $end
$var wire 1 1$ c $end
$var wire 1 2$ d $end
$var wire 12 3$ e [11:0] $end
$var wire 12 4$ d_ext [11:0] $end
$var wire 12 5$ c_ext [11:0] $end
$upscope $end
$scope module mult5 $end
$var wire 12 6$ a [11:0] $end
$var wire 12 7$ b [11:0] $end
$var wire 1 8$ c $end
$var wire 1 9$ d $end
$var wire 12 :$ e [11:0] $end
$var wire 12 ;$ d_ext [11:0] $end
$var wire 12 <$ c_ext [11:0] $end
$upscope $end
$scope module mult6 $end
$var wire 12 =$ a [11:0] $end
$var wire 12 >$ b [11:0] $end
$var wire 1 ?$ c $end
$var wire 1 @$ d $end
$var wire 12 A$ e [11:0] $end
$var wire 12 B$ d_ext [11:0] $end
$var wire 12 C$ c_ext [11:0] $end
$upscope $end
$scope module mult7 $end
$var wire 12 D$ a [11:0] $end
$var wire 12 E$ b [11:0] $end
$var wire 1 F$ c $end
$var wire 1 G$ d $end
$var wire 12 H$ e [11:0] $end
$var wire 12 I$ d_ext [11:0] $end
$var wire 12 J$ c_ext [11:0] $end
$upscope $end
$upscope $end
$scope module rwldrv_inst $end
$var wire 1 & cima $end
$var wire 6 K$ sel [5:0] $end
$var wire 192 L$ xin0 [191:0] $end
$var reg 8 M$ rwlb_row0 [7:0] $end
$var reg 8 N$ rwlb_row1 [7:0] $end
$upscope $end
$upscope $end
$upscope $end
$enddefinitions $end
$comment Show the parameter values. $end
$dumpall
b1110 p#
b1101 j#
b1101 d#
b1100 ^#
b1100 X#
b1100 R#
b1100 L#
b1110 g"
b1101 a"
b1101 ["
b1100 U"
b1100 O"
b1100 I"
b1100 C"
b1111 8"
b10111 1"
b10110 0"
b10101 /"
b10100 ."
b10011 -"
b10010 ,"
b10001 +"
b10000 *"
b1111 )"
b1110 ("
b1101 '"
b1100 &"
b1011 %"
b1010 $"
b1001 #"
b1000 ""
b11011 y
b0 a
b10 `
b1 _
$end
#0
$dumpvars
b0 N$
b11111111 M$
b0 L$
b0 K$
b111111111111 J$
b0 I$
b111111111111 H$
0G$
1F$
b0 E$
bx D$
b111111111111 C$
b0 B$
b111111111111 A$
0@$
1?$
b0 >$
bx =$
b111111111111 <$
b0 ;$
b111111111111 :$
09$
18$
b0 7$
bx 6$
b111111111111 5$
b0 4$
b111111111111 3$
02$
11$
b0 0$
bx /$
b111111111111 .$
b0 -$
b111111111111 ,$
0+$
1*$
b0 )$
bx ($
b111111111111 '$
b0 &$
b111111111111 %$
0$$
1#$
b0 "$
bx !$
b111111111111 ~#
b0 }#
b111111111111 |#
0{#
1z#
b0 y#
bx x#
b111111111111 w#
b0 v#
b111111111111 u#
0t#
1s#
b0 r#
bx q#
b111111111111100 o#
b111111111111100 n#
b111111111111000 m#
b11111111111100 l#
b11111111111100 k#
b11111111111110 i#
b11111111111110 h#
b11111111111100 g#
b1111111111110 f#
b1111111111110 e#
b11111111111110 c#
b11111111111110 b#
b11111111111100 a#
b1111111111110 `#
b1111111111110 _#
b111111111111 ]#
b1111111111111 \#
b111111111111 [#
b1111111111111 Z#
b1111111111110 Y#
b111111111111 W#
b1111111111111 V#
b111111111111 U#
b1111111111111 T#
b1111111111110 S#
b111111111111 Q#
b1111111111111 P#
b111111111111 O#
b1111111111111 N#
b1111111111110 M#
b111111111111 K#
b1111111111111 J#
b111111111111 I#
b1111111111111 H#
b1111111111110 G#
b111111111111000 F#
b11111111 E#
b0 D#
b0 C#
bx B#
b111111111111 A#
b0 @#
b111111111111 ?#
0>#
1=#
b0 <#
bx ;#
b111111111111 :#
b0 9#
b111111111111 8#
07#
16#
b0 5#
bx 4#
b111111111111 3#
b0 2#
b111111111111 1#
00#
1/#
b0 .#
bx -#
b111111111111 ,#
b0 +#
b111111111111 *#
0)#
1(#
b0 '#
bx &#
b111111111111 %#
b0 $#
b111111111111 ##
0"#
1!#
b0 ~"
bx }"
b111111111111 |"
b0 {"
b111111111111 z"
0y"
1x"
b0 w"
bx v"
b111111111111 u"
b0 t"
b111111111111 s"
0r"
1q"
b0 p"
bx o"
b111111111111 n"
b0 m"
b111111111111 l"
0k"
1j"
b0 i"
bx h"
b111111111111100 f"
b111111111111100 e"
b111111111111000 d"
b11111111111100 c"
b11111111111100 b"
b11111111111110 `"
b11111111111110 _"
b11111111111100 ^"
b1111111111110 ]"
b1111111111110 \"
b11111111111110 Z"
b11111111111110 Y"
b11111111111100 X"
b1111111111110 W"
b1111111111110 V"
b111111111111 T"
b1111111111111 S"
b111111111111 R"
b1111111111111 Q"
b1111111111110 P"
b111111111111 N"
b1111111111111 M"
b111111111111 L"
b1111111111111 K"
b1111111111110 J"
b111111111111 H"
b1111111111111 G"
b111111111111 F"
b1111111111111 E"
b1111111111110 D"
b111111111111 B"
b1111111111111 A"
b111111111111 @"
b1111111111111 ?"
b1111111111110 >"
b111111111111000 ="
b11111111 <"
b0 ;"
b0 :"
bx 9"
b111111111111000 7"
b1111111111110000 6"
05"
b111111111111000 4"
b111111111111000 3"
b111111111111000 2"
b0z00000000 !"
b0x00000000 ~
b0 }
b0 |
b0 {
b0 z
b1111111111110000 x
0w
b0 v
b0 u
b1111111111110000 t
b1111111111110000 s
b1111111111110000 r
0q
b0x00000000000000000001111111111110000 p
b0x00000000 o
b1111111111110000 n
b0 m
b1111111111110000 l
b0 k
b0x00000000000000000001111111111110000 j
b1111111111110000 i
b1111111111110000 h
b111111111111000 g
b111111111111000 f
b111111111111000 e
b0x00000000000000000001111111111110000 d
b0 c
b0 b
b1011 ^
b0 ]
b0 \
b0 [
b0 Z
b0 Y
b1000 X
b1000 W
b0 V
bx U
b0 T
b0 S
b11111111 R
b0 Q
b1000 P
b1000 O
b0 N
bx M
b0 L
b0 K
b11111111 J
b0 I
b0 H
b0 G
b0 F
b11111111 E
b0 D
bx C
b0 B
bx A
b0 @
b0 ?
b0 >
b0 =
b111111111111000 <
b111111111111000 ;
b0x00000000000000000001111111111110000 :
b11111111 9
b0 8
b0 7
16
bx 5
b0 4
bx 3
b0 2
b0 1
b0 0
b0 /
b0 .
b0 -
b0 ,
0+
0*
0)
0(
0'
0&
0%
b0 $
b0 #
b0x00000000000000000001111111111110000 "
1!
$end
#5000
1'
#10000
0'
#15000
1'
#20000
0'
1)
#25000
1'
#30000
b1000 P
b1000 O
bx 5
bx C
bx M
bx 9"
b1 ?
b1 H
b1 L
b1 T
b1 [
b1 >
b1 G
b1 K
b1 \
0'
b1 #
b1 /
b1 Y
b1 $
b1 0
b1 Z
1%
#35000
1'
#40000
b1000 P
b1000 O
bx 5
bx C
bx M
bx 9"
b10 ?
b10 H
b10 L
b10 T
b10 [
b10 >
b10 G
b10 K
b10 \
0'
b10 #
b10 /
b10 Y
b10 $
b10 0
b10 Z
#45000
1'
#50000
b1000 P
b1000 O
bx 5
bx C
bx M
bx 9"
b11 ?
b11 H
b11 L
b11 T
b11 [
b100 >
b100 G
b100 K
b100 \
0'
b11 #
b11 /
b11 Y
b100 $
b100 0
b100 Z
#55000
1'
#60000
b1000 P
b1000 O
bx 5
bx C
bx M
bx 9"
b100 ?
b100 H
b100 L
b100 T
b100 [
b1000 >
b1000 G
b1000 K
b1000 \
0'
b100 #
b100 /
b100 Y
b1000 $
b1000 0
b1000 Z
#65000
1'
#70000
b1000 P
b1000 O
bx 5
bx C
bx M
bx 9"
b101 ?
b101 H
b101 L
b101 T
b101 [
b10000 >
b10000 G
b10000 K
b10000 \
0'
b101 #
b101 /
b101 Y
b10000 $
b10000 0
b10000 Z
#75000
1'
#80000
b1000 P
b1000 O
bx 5
bx C
bx M
bx 9"
b110 ?
b110 H
b110 L
b110 T
b110 [
b100000 >
b100000 G
b100000 K
b100000 \
0'
b110 #
b110 /
b110 Y
b100000 $
b100000 0
b100000 Z
#85000
1'
#90000
b1000 P
b1000 O
bx 5
bx C
bx M
bx 9"
b111 ?
b111 H
b111 L
b111 T
b111 [
b1000000 >
b1000000 G
b1000000 K
b1000000 \
0'
b111 #
b111 /
b111 Y
b1000000 $
b1000000 0
b1000000 Z
#95000
1'
#100000
b1000 h"
b0 o"
b1000 v"
b0 }"
b1000 &#
b0 -#
b1000 4#
b0 ;#
b1000 P
b1000 O
b1000000000000000000000001000000000000000000000001000000000000000000000001000 5
b1000000000000000000000001000000000000000000000001000000000000000000000001000 C
b1000000000000000000000001000000000000000000000001000000000000000000000001000 M
b1000000000000000000000001000000000000000000000001000000000000000000000001000 9"
b1000 ?
b1000 H
b1000 L
b1000 T
b1000 [
b10000000 >
b10000000 G
b10000000 K
b10000000 \
0'
b1000 #
b1000 /
b1000 Y
b10000000 $
b10000000 0
b10000000 Z
#105000
1'
#110000
b0 w#
0s#
b0 n"
0j"
b1000 P
b1000 O
b1000000000000000000000001000000000000000000000001000000000000000000000001000 5
b1000000000000000000000001000000000000000000000001000000000000000000000001000 C
b1000000000000000000000001000000000000000000000001000000000000000000000001000 M
b1000000000000000000000001000000000000000000000001000000000000000000000001000 9"
b1000 X
b1000 W
bx 3
bx A
bx U
bx B#
b11111110 9
b11111110 E
b11111110 J
b11111110 R
b11111110 <"
b11111110 E#
b11111110 M$
0'
1*
b1 ,
b1 1
b1 L$
#115000
0!
b1 c
1'
#120000
0'
0*
#125000
b0xx00000000 o
b0xx00000000 ~
b0xx00000000000000000101111111111010000 "
b0xx00000000000000000101111111111010000 :
b0xx00000000000000000101111111111010000 d
b0xx00000000000000000101111111111010000 j
b0xx00000000000000000101111111111010000 p
b101111111111010000 n
b0x000000000 }
b111111111111 w#
1s#
b111111111111 n"
1j"
b1000 P
b1000 O
b1000000000000000000000001000000000000000000000001000000000000000000000001000 5
b1000000000000000000000001000000000000000000000001000000000000000000000001000 C
b1000000000000000000000001000000000000000000000001000000000000000000000001000 M
b1000000000000000000000001000000000000000000000001000000000000000000000001000 9"
b1000 X
b1000 W
bx 3
bx A
bx U
bx B#
b101111111111010000 x
b11111111111100000 v
b11111111111100000 u
b0x000000000 {
b11111111 9
b11111111 E
b11111111 J
b11111111 R
b11111111 <"
b11111111 E#
b11111111 M$
b0x000000000000000000011111111111100000 k
b0x000000000000000000011111111111100000 m
b1 7
b1 b
b1 K$
1'
#130000
0'
#135000
b0xxx00000000 o
b0xxx00000000 ~
b1000 P
b1000 O
b1000000000000000000000001000000000000000000000001000000000000000000000001000 5
b1000000000000000000000001000000000000000000000001000000000000000000000001000 C
b1000000000000000000000001000000000000000000000001000000000000000000000001000 M
b1000000000000000000000001000000000000000000000001000000000000000000000001000 9"
b1000 X
b1000 W
bx 3
bx A
bx U
bx B#
b0xxx00000000000000001101111111110010000 "
b0xxx00000000000000001101111111110010000 :
b0xxx00000000000000001101111111110010000 d
b0xxx00000000000000001101111111110010000 j
b0xxx00000000000000001101111111110010000 p
b1101111111110010000 n
b0xx000000000 }
b11111111 9
b11111111 E
b11111111 J
b11111111 R
b11111111 <"
b11111111 E#
b11111111 M$
b1101111111110010000 x
b1011111111110100000 v
b1011111111110100000 u
b0xx000000000 {
b10 7
b10 b
b10 K$
b0xx000000000000000001011111111110100000 k
b0xx000000000000000001011111111110100000 m
1'
#140000
0'
#145000
b0xxxx00000000 o
b0xxxx00000000 ~
b0xxxx00000000000000011101111111100010000 "
b0xxxx00000000000000011101111111100010000 :
b0xxxx00000000000000011101111111100010000 d
b0xxxx00000000000000011101111111100010000 j
b0xxxx00000000000000011101111111100010000 p
b11101111111100010000 n
b0xxx000000000 }
b1000 P
b1000 O
b1000000000000000000000001000000000000000000000001000000000000000000000001000 5
b1000000000000000000000001000000000000000000000001000000000000000000000001000 C
b1000000000000000000000001000000000000000000000001000000000000000000000001000 M
b1000000000000000000000001000000000000000000000001000000000000000000000001000 9"
b1000 X
b1000 W
bx 3
bx A
bx U
bx B#
b11101111111100010000 x
b11011111111100100000 v
b11011111111100100000 u
b0xxx000000000 {
b11111111 9
b11111111 E
b11111111 J
b11111111 R
b11111111 <"
b11111111 E#
b11111111 M$
b0xxx000000000000000011011111111100100000 k
b0xxx000000000000000011011111111100100000 m
b11 7
b11 b
b11 K$
1'
#150000
0'
#155000
b0xxxxx00000000 o
b0xxxxx00000000 ~
b1000 P
b1000 O
b1000000000000000000000001000000000000000000000001000000000000000000000001000 5
b1000000000000000000000001000000000000000000000001000000000000000000000001000 C
b1000000000000000000000001000000000000000000000001000000000000000000000001000 M
b1000000000000000000000001000000000000000000000001000000000000000000000001000 9"
b1000 X
b1000 W
bx 3
bx A
bx U
bx B#
b111111111111 A"
b1111111111110 >"
b1111111111110 V"
b111111111111 ?"
b111111111111 G"
b1111111111110 D"
b1111111111110 W"
b111111111111 E"
b111111111111 M"
b1111111111110 J"
b1111111111110 \"
b111111111111 K"
b111111111111 S"
b1111111111110 P"
b1111111111110 ]"
b111111111111 Q"
b1111111111110 Z"
b11111111111100 X"
b11111111111100 b"
b1111111111110 Y"
b1111111111110 `"
b11111111111100 ^"
b11111111111100 c"
b1111111111110 _"
b11111111111100 f"
b1111111111110000 r
b1111111111110000 t
b1111111111110000 h
b1111111111110000 i
b1111111111110000 l
b1111111111110000 s
b1111111111110000 6"
b111111111111000 2"
b111111111111000 <
b111111111111000 g
b111111111111000 7"
b111111111111000 ="
b111111111111000 d"
b11111111111100 e"
b111111111111 J#
b1111111111110 G#
b1111111111110 _#
b111111111111 H#
b111111111111 P#
b1111111111110 M#
b1111111111110 `#
b111111111111 N#
b111111111111 V#
b1111111111110 S#
b1111111111110 e#
b111111111111 T#
b111111111111 \#
b1111111111110 Y#
b1111111111110 f#
b111111111111 Z#
b1111111111110 c#
b11111111111100 a#
b11111111111100 k#
b1111111111110 b#
b1111111111110 i#
b11111111111100 g#
b11111111111100 l#
b1111111111110 h#
b11111111111100 o#
b111111111111000 ;
b111111111111000 f
b111111111111000 F#
b111111111111000 m#
b11111111111100 n#
b0xxxxx00000000000000111101111111000010000 "
b0xxxxx00000000000000111101111111000010000 :
b0xxxxx00000000000000111101111111000010000 d
b0xxxxx00000000000000111101111111000010000 j
b0xxxxx00000000000000111101111111000010000 p
b111101111111000010000 n
b0xxxx000000000 }
b11111111 9
b11111111 E
b11111111 J
b11111111 R
b11111111 <"
b11111111 E#
b11111111 M$
06
b111101111111000010000 x
b111011111111000100000 v
b111011111111000100000 u
b0xxxx000000000 {
b100 7
b100 b
b100 K$
b0xxxx000000000000000111011111111000100000 k
b0xxxx000000000000000111011111111000100000 m
1'
#160000
0'
