DCIM_Macro/tb_standard_math.vcd
$date
	Mon Jul 28 20:58:17 2025
$end
$version
	Icarus Verilog
$end
$timescale
	1ps
$end
$scope module tb_standard_math $end
$var wire 1 ! st $end
$var wire 51 " nout [50:0] $end
$var reg 24 # D [23:0] $end
$var reg 8 $ WA [7:0] $end
$var reg 1 % acm_en $end
$var reg 1 & cima $end
$var reg 1 ' clk $end
$var reg 1 ( inwidth $end
$var reg 1 ) rstn $end
$var reg 1 * start $end
$var reg 1 + wwidth $end
$var reg 192 , xin0 [191:0] $end
$var integer 32 - fail_count [31:0] $end
$var integer 32 . pass_count [31:0] $end
$var integer 32 / test_count [31:0] $end
$scope module dut $end
$var wire 24 0 D [23:0] $end
$var wire 8 1 WA [7:0] $end
$var wire 1 % acm_en $end
$var wire 1 & cima $end
$var wire 1 ' clk $end
$var wire 1 ( inwidth $end
$var wire 1 ) rstn $end
$var wire 1 * start $end
$var wire 1 + wwidth $end
$var wire 192 2 xin0 [191:0] $end
$var wire 96 3 wb1_b [95:0] $end
$var wire 96 4 wb1_a [95:0] $end
$var wire 96 5 wb0_b [95:0] $end
$var wire 96 6 wb0_a [95:0] $end
$var wire 1 7 sus $end
$var wire 1 ! st $end
$var wire 6 8 sel [5:0] $end
$var wire 8 9 rwlb_row1 [7:0] $end
$var wire 8 : rwlb_row0 [7:0] $end
$var wire 51 ; nout [50:0] $end
$var wire 15 < macout_b [14:0] $end
$var wire 15 = macout_a [14:0] $end
$var wire 8 > WA1 [7:0] $end
$var wire 8 ? WA0 [7:0] $end
$var wire 24 @ D1 [23:0] $end
$scope module array_inst $end
$var wire 96 A wb1_b [95:0] $end
$var wire 96 B wb1_a [95:0] $end
$var wire 96 C wb0_b [95:0] $end
$var wire 96 D wb0_a [95:0] $end
$var wire 8 E rwlb_row1 [7:0] $end
$var wire 8 F rwlb_row0 [7:0] $end
$var wire 8 G WA1 [7:0] $end
$var wire 8 H WA0 [7:0] $end
$var wire 24 I D [23:0] $end
$scope module bank0_inst $end
$var wire 8 J rwlb_row1 [7:0] $end
$var wire 8 K rwlb_row0 [7:0] $end
$var wire 8 L WA [7:0] $end
$var wire 24 M D [23:0] $end
$var reg 96 N wb_a [95:0] $end
$var reg 96 O wb_b [95:0] $end
$scope begin $ivl_for_loop0 $end
$var integer 32 P i [31:0] $end
$upscope $end
$scope begin $ivl_for_loop1 $end
$var integer 32 Q j [31:0] $end
$upscope $end
$upscope $end
$scope module bank1_inst $end
$var wire 8 R rwlb_row1 [7:0] $end
$var wire 8 S rwlb_row0 [7:0] $end
$var wire 8 T WA [7:0] $end
$var wire 24 U D [23:0] $end
$var reg 96 V wb_a [95:0] $end
$var reg 96 W wb_b [95:0] $end
$scope begin $ivl_for_loop0 $end
$var integer 32 X i [31:0] $end
$upscope $end
$scope begin $ivl_for_loop1 $end
$var integer 32 Y j [31:0] $end
$upscope $end
$upscope $end
$upscope $end
$scope module ctrl_inst $end
$var wire 24 Z D [23:0] $end
$var wire 8 [ WA [7:0] $end
$var wire 1 & cima $end
$var reg 24 \ D1 [23:0] $end
$var reg 8 ] WA0 [7:0] $end
$var reg 8 ^ WA1 [7:0] $end
$upscope $end
$scope module gctrl_inst $end
$var wire 1 ' clk $end
$var wire 1 ( inwidth $end
$var wire 1 ) rstn $end
$var wire 1 * start $end
$var wire 6 _ max_count [5:0] $end
$var parameter 2 ` COUNT $end
$var parameter 2 a DONE $end
$var parameter 2 b IDLE $end
$var reg 6 c sel [5:0] $end
$var reg 1 ! st $end
$var reg 2 d state [1:0] $end
$upscope $end
$scope module global_io_inst $end
$var wire 1 % acm_en $end
$var wire 1 ' clk $end
$var wire 1 ) rstn $end
$var wire 1 ! st $end
$var wire 1 + wwidth $end
$var wire 51 e nout [50:0] $end
$var wire 15 f macout_b_shifted [14:0] $end
$var wire 15 g macout_b [14:0] $end
$var wire 15 h macout_a [14:0] $end
$var wire 27 i add_out [26:0] $end
$scope module acc_inst $end
$var wire 27 j a [26:0] $end
$var wire 1 % acm_en $end
$var wire 1 ' clk $end
$var wire 1 ) rstn $end
$var wire 1 ! st $end
$var wire 51 k nout [50:0] $end
$var reg 51 l nout_1 [50:0] $end
$scope module se_cla_inst $end
$var wire 27 m a [26:0] $end
$var wire 51 n b [50:0] $end
$var wire 27 o sum_low [26:0] $end
$var wire 24 p sum_high [23:0] $end
$var wire 51 q sum [50:0] $end
$var wire 1 r carry_out $end
$var wire 51 s a_ext [50:0] $end
$scope module add_low $end
$var wire 27 t a [26:0] $end
$var wire 28 u a_signed [27:0] $end
$var wire 27 v b [26:0] $end
$var wire 28 w b_signed [27:0] $end
$var wire 1 x sus $end
$var wire 28 y sum [27:0] $end
$var parameter 32 z width $end
$upscope $end
$scope module s_cla_inst $end
$var wire 24 { a [23:0] $end
$var wire 24 | b [23:0] $end
$var wire 1 r cin $end
$var wire 24 } g [23:0] $end
$var wire 24 ~ p [23:0] $end
$var wire 24 !" sum [23:0] $end
$var wire 25 "" c [24:0] $end
$scope begin carry_gen[8] $end
$var parameter 5 #" i $end
$upscope $end
$scope begin carry_gen[9] $end
$var parameter 5 $" i $end
$upscope $end
$scope begin carry_gen[10] $end
$var parameter 5 %" i $end
$upscope $end
$scope begin carry_gen[11] $end
$var parameter 5 &" i $end
$upscope $end
$scope begin carry_gen[12] $end
$var parameter 5 '" i $end
$upscope $end
$scope begin carry_gen[13] $end
$var parameter 5 (" i $end
$upscope $end
$scope begin carry_gen[14] $end
$var parameter 5 )" i $end
$upscope $end
$scope begin carry_gen[15] $end
$var parameter 5 *" i $end
$upscope $end
$scope begin carry_gen[16] $end
$var parameter 6 +" i $end
$upscope $end
$scope begin carry_gen[17] $end
$var parameter 6 ," i $end
$upscope $end
$scope begin carry_gen[18] $end
$var parameter 6 -" i $end
$upscope $end
$scope begin carry_gen[19] $end
$var parameter 6 ." i $end
$upscope $end
$scope begin carry_gen[20] $end
$var parameter 6 /" i $end
$upscope $end
$scope begin carry_gen[21] $end
$var parameter 6 0" i $end
$upscope $end
$scope begin carry_gen[22] $end
$var parameter 6 1" i $end
$upscope $end
$scope begin carry_gen[23] $end
$var parameter 6 2" i $end
$upscope $end
$upscope $end
$upscope $end
$upscope $end
$scope module add_inst $end
$var wire 16 3" a_signed [15:0] $end
$var wire 15 4" b [14:0] $end
$var wire 16 5" b_signed [15:0] $end
$var wire 1 6" sus $end
$var wire 16 7" sum [15:0] $end
$var wire 15 8" a [14:0] $end
$var parameter 32 9" width $end
$upscope $end
$upscope $end
$scope module mac0_inst $end
$var wire 1 7 sus $end
$var wire 96 :" wb0 [95:0] $end
$var wire 96 ;" wb1 [95:0] $end
$var wire 8 <" rwlb_row1 [7:0] $end
$var wire 8 =" rwlb_row0 [7:0] $end
$var wire 15 >" mac_out [14:0] $end
$scope module add1_0 $end
$var wire 1 7 sus $end
$var wire 13 ?" sum [12:0] $end
$var wire 13 @" b_signed [12:0] $end
$var wire 12 A" b [11:0] $end
$var wire 13 B" a_signed [12:0] $end
$var wire 12 C" a [11:0] $end
$var parameter 32 D" width $end
$upscope $end
$scope module add1_1 $end
$var wire 1 7 sus $end
$var wire 13 E" sum [12:0] $end
$var wire 13 F" b_signed [12:0] $end
$var wire 12 G" b [11:0] $end
$var wire 13 H" a_signed [12:0] $end
$var wire 12 I" a [11:0] $end
$var parameter 32 J" width $end
$upscope $end
$scope module add1_2 $end
$var wire 1 7 sus $end
$var wire 13 K" sum [12:0] $end
$var wire 13 L" b_signed [12:0] $end
$var wire 12 M" b [11:0] $end
$var wire 13 N" a_signed [12:0] $end
$var wire 12 O" a [11:0] $end
$var parameter 32 P" width $end
$upscope $end
$scope module add1_3 $end
$var wire 1 7 sus $end
$var wire 13 Q" sum [12:0] $end
$var wire 13 R" b_signed [12:0] $end
$var wire 12 S" b [11:0] $end
$var wire 13 T" a_signed [12:0] $end
$var wire 12 U" a [11:0] $end
$var parameter 32 V" width $end
$upscope $end
$scope module add2_0 $end
$var wire 13 W" a [12:0] $end
$var wire 13 X" b [12:0] $end
$var wire 1 7 sus $end
$var wire 14 Y" sum [13:0] $end
$var wire 14 Z" b_signed [13:0] $end
$var wire 14 [" a_signed [13:0] $end
$var parameter 32 \" width $end
$upscope $end
$scope module add2_1 $end
$var wire 13 ]" a [12:0] $end
$var wire 13 ^" b [12:0] $end
$var wire 1 7 sus $end
$var wire 14 _" sum [13:0] $end
$var wire 14 `" b_signed [13:0] $end
$var wire 14 a" a_signed [13:0] $end
$var parameter 32 b" width $end
$upscope $end
$scope module add3_0 $end
$var wire 14 c" a [13:0] $end
$var wire 14 d" b [13:0] $end
$var wire 1 7 sus $end
$var wire 15 e" sum [14:0] $end
$var wire 15 f" b_signed [14:0] $end
$var wire 15 g" a_signed [14:0] $end
$var parameter 32 h" width $end
$upscope $end
$scope module mult0 $end
$var wire 12 i" a [11:0] $end
$var wire 12 j" b [11:0] $end
$var wire 1 k" c $end
$var wire 1 l" d $end
$var wire 12 m" e [11:0] $end
$var wire 12 n" d_ext [11:0] $end
$var wire 12 o" c_ext [11:0] $end
$upscope $end
$scope module mult1 $end
$var wire 12 p" a [11:0] $end
$var wire 12 q" b [11:0] $end
$var wire 1 r" c $end
$var wire 1 s" d $end
$var wire 12 t" e [11:0] $end
$var wire 12 u" d_ext [11:0] $end
$var wire 12 v" c_ext [11:0] $end
$upscope $end
$scope module mult2 $end
$var wire 12 w" a [11:0] $end
$var wire 12 x" b [11:0] $end
$var wire 1 y" c $end
$var wire 1 z" d $end
$var wire 12 {" e [11:0] $end
$var wire 12 |" d_ext [11:0] $end
$var wire 12 }" c_ext [11:0] $end
$upscope $end
$scope module mult3 $end
$var wire 12 ~" a [11:0] $end
$var wire 12 !# b [11:0] $end
$var wire 1 "# c $end
$var wire 1 ## d $end
$var wire 12 $# e [11:0] $end
$var wire 12 %# d_ext [11:0] $end
$var wire 12 &# c_ext [11:0] $end
$upscope $end
$scope module mult4 $end
$var wire 12 '# a [11:0] $end
$var wire 12 (# b [11:0] $end
$var wire 1 )# c $end
$var wire 1 *# d $end
$var wire 12 +# e [11:0] $end
$var wire 12 ,# d_ext [11:0] $end
$var wire 12 -# c_ext [11:0] $end
$upscope $end
$scope module mult5 $end
$var wire 12 .# a [11:0] $end
$var wire 12 /# b [11:0] $end
$var wire 1 0# c $end
$var wire 1 1# d $end
$var wire 12 2# e [11:0] $end
$var wire 12 3# d_ext [11:0] $end
$var wire 12 4# c_ext [11:0] $end
$upscope $end
$scope module mult6 $end
$var wire 12 5# a [11:0] $end
$var wire 12 6# b [11:0] $end
$var wire 1 7# c $end
$var wire 1 8# d $end
$var wire 12 9# e [11:0] $end
$var wire 12 :# d_ext [11:0] $end
$var wire 12 ;# c_ext [11:0] $end
$upscope $end
$scope module mult7 $end
$var wire 12 <# a [11:0] $end
$var wire 12 =# b [11:0] $end
$var wire 1 ># c $end
$var wire 1 ?# d $end
$var wire 12 @# e [11:0] $end
$var wire 12 A# d_ext [11:0] $end
$var wire 12 B# c_ext [11:0] $end
$upscope $end
$upscope $end
$scope module mac1_inst $end
$var wire 1 7 sus $end
$var wire 96 C# wb0 [95:0] $end
$var wire 96 D# wb1 [95:0] $end
$var wire 8 E# rwlb_row1 [7:0] $end
$var wire 8 F# rwlb_row0 [7:0] $end
$var wire 15 G# mac_out [14:0] $end
$scope module add1_0 $end
$var wire 1 7 sus $end
$var wire 13 H# sum [12:0] $end
$var wire 13 I# b_signed [12:0] $end
$var wire 12 J# b [11:0] $end
$var wire 13 K# a_signed [12:0] $end
$var wire 12 L# a [11:0] $end
$var parameter 32 M# width $end
$upscope $end
$scope module add1_1 $end
$var wire 1 7 sus $end
$var wire 13 N# sum [12:0] $end
$var wire 13 O# b_signed [12:0] $end
$var wire 12 P# b [11:0] $end
$var wire 13 Q# a_signed [12:0] $end
$var wire 12 R# a [11:0] $end
$var parameter 32 S# width $end
$upscope $end
$scope module add1_2 $end
$var wire 1 7 sus $end
$var wire 13 T# sum [12:0] $end
$var wire 13 U# b_signed [12:0] $end
$var wire 12 V# b [11:0] $end
$var wire 13 W# a_signed [12:0] $end
$var wire 12 X# a [11:0] $end
$var parameter 32 Y# width $end
$upscope $end
$scope module add1_3 $end
$var wire 1 7 sus $end
$var wire 13 Z# sum [12:0] $end
$var wire 13 [# b_signed [12:0] $end
$var wire 12 \# b [11:0] $end
$var wire 13 ]# a_signed [12:0] $end
$var wire 12 ^# a [11:0] $end
$var parameter 32 _# width $end
$upscope $end
$scope module add2_0 $end
$var wire 13 `# a [12:0] $end
$var wire 13 a# b [12:0] $end
$var wire 1 7 sus $end
$var wire 14 b# sum [13:0] $end
$var wire 14 c# b_signed [13:0] $end
$var wire 14 d# a_signed [13:0] $end
$var parameter 32 e# width $end
$upscope $end
$scope module add2_1 $end
$var wire 13 f# a [12:0] $end
$var wire 13 g# b [12:0] $end
$var wire 1 7 sus $end
$var wire 14 h# sum [13:0] $end
$var wire 14 i# b_signed [13:0] $end
$var wire 14 j# a_signed [13:0] $end
$var parameter 32 k# width $end
$upscope $end
$scope module add3_0 $end
$var wire 14 l# a [13:0] $end
$var wire 14 m# b [13:0] $end
$var wire 1 7 sus $end
$var wire 15 n# sum [14:0] $end
$var wire 15 o# b_signed [14:0] $end
$var wire 15 p# a_signed [14:0] $end
$var parameter 32 q# width $end
$upscope $end
$scope module mult0 $end
$var wire 12 r# a [11:0] $end
$var wire 12 s# b [11:0] $end
$var wire 1 t# c $end
$var wire 1 u# d $end
$var wire 12 v# e [11:0] $end
$var wire 12 w# d_ext [11:0] $end
$var wire 12 x# c_ext [11:0] $end
$upscope $end
$scope module mult1 $end
$var wire 12 y# a [11:0] $end
$var wire 12 z# b [11:0] $end
$var wire 1 {# c $end
$var wire 1 |# d $end
$var wire 12 }# e [11:0] $end
$var wire 12 ~# d_ext [11:0] $end
$var wire 12 !$ c_ext [11:0] $end
$upscope $end
$scope module mult2 $end
$var wire 12 "$ a [11:0] $end
$var wire 12 #$ b [11:0] $end
$var wire 1 $$ c $end
$var wire 1 %$ d $end
$var wire 12 &$ e [11:0] $end
$var wire 12 '$ d_ext [11:0] $end
$var wire 12 ($ c_ext [11:0] $end
$upscope $end
$scope module mult3 $end
$var wire 12 )$ a [11:0] $end
$var wire 12 *$ b [11:0] $end
$var wire 1 +$ c $end
$var wire 1 ,$ d $end
$var wire 12 -$ e [11:0] $end
$var wire 12 .$ d_ext [11:0] $end
$var wire 12 /$ c_ext [11:0] $end
$upscope $end
$scope module mult4 $end
$var wire 12 0$ a [11:0] $end
$var wire 12 1$ b [11:0] $end
$var wire 1 2$ c $end
$var wire 1 3$ d $end
$var wire 12 4$ e [11:0] $end
$var wire 12 5$ d_ext [11:0] $end
$var wire 12 6$ c_ext [11:0] $end
$upscope $end
$scope module mult5 $end
$var wire 12 7$ a [11:0] $end
$var wire 12 8$ b [11:0] $end
$var wire 1 9$ c $end
$var wire 1 :$ d $end
$var wire 12 ;$ e [11:0] $end
$var wire 12 <$ d_ext [11:0] $end
$var wire 12 =$ c_ext [11:0] $end
$upscope $end
$scope module mult6 $end
$var wire 12 >$ a [11:0] $end
$var wire 12 ?$ b [11:0] $end
$var wire 1 @$ c $end
$var wire 1 A$ d $end
$var wire 12 B$ e [11:0] $end
$var wire 12 C$ d_ext [11:0] $end
$var wire 12 D$ c_ext [11:0] $end
$upscope $end
$scope module mult7 $end
$var wire 12 E$ a [11:0] $end
$var wire 12 F$ b [11:0] $end
$var wire 1 G$ c $end
$var wire 1 H$ d $end
$var wire 12 I$ e [11:0] $end
$var wire 12 J$ d_ext [11:0] $end
$var wire 12 K$ c_ext [11:0] $end
$upscope $end
$upscope $end
$scope module rwldrv_inst $end
$var wire 1 & cima $end
$var wire 6 L$ sel [5:0] $end
$var wire 192 M$ xin0 [191:0] $end
$var reg 8 N$ rwlb_row0 [7:0] $end
$var reg 8 O$ rwlb_row1 [7:0] $end
$upscope $end
$upscope $end
$scope task run_math_test $end
$var reg 51 P$ expected_result [50:0] $end
$var reg 192 Q$ inputs [191:0] $end
$var reg 1 R$ inwidth_mode $end
$var reg 128 S$ test_name [127:0] $end
$var reg 24 T$ weight0 [23:0] $end
$var reg 24 U$ weight1 [23:0] $end
$var reg 24 V$ weight2 [23:0] $end
$var reg 24 W$ weight3 [23:0] $end
$var reg 24 X$ weight4 [23:0] $end
$var reg 24 Y$ weight5 [23:0] $end
$var reg 24 Z$ weight6 [23:0] $end
$var reg 24 [$ weight7 [23:0] $end
$var reg 1 \$ wwidth_mode $end
$upscope $end
$upscope $end
$enddefinitions $end
$comment Show the parameter values. $end
$dumpall
b1110 q#
b1101 k#
b1101 e#
b1100 _#
b1100 Y#
b1100 S#
b1100 M#
b1110 h"
b1101 b"
b1101 \"
b1100 V"
b1100 P"
b1100 J"
b1100 D"
b1111 9"
b10111 2"
b10110 1"
b10101 0"
b10100 /"
b10011 ."
b10010 -"
b10001 ,"
b10000 +"
b1111 *"
b1110 )"
b1101 ("
b1100 '"
b1011 &"
b1010 %"
b1001 $"
b1000 #"
b11011 z
b0 b
b10 a
b1 `
$end
#0
$dumpvars
x\$
bx [$
bx Z$
bx Y$
bx X$
bx W$
bx V$
bx U$
bx T$
bx S$
xR$
bx Q$
bx P$
b0 O$
b11111111 N$
b0 M$
b0 L$
b111111111111 K$
b0 J$
b111111111111 I$
0H$
1G$
b0 F$
bx E$
b111111111111 D$
b0 C$
b111111111111 B$
0A$
1@$
b0 ?$
bx >$
b111111111111 =$
b0 <$
b111111111111 ;$
0:$
19$
b0 8$
bx 7$
b111111111111 6$
b0 5$
b111111111111 4$
03$
12$
b0 1$
bx 0$
b111111111111 /$
b0 .$
b111111111111 -$
0,$
1+$
b0 *$
bx )$
b111111111111 ($
b0 '$
b111111111111 &$
0%$
1$$
b0 #$
bx "$
b111111111111 !$
b0 ~#
b111111111111 }#
0|#
1{#
b0 z#
bx y#
b111111111111 x#
b0 w#
b111111111111 v#
0u#
1t#
b0 s#
bx r#
b111111111111100 p#
b111111111111100 o#
b111111111111000 n#
b11111111111100 m#
b11111111111100 l#
b11111111111110 j#
b11111111111110 i#
b11111111111100 h#
b1111111111110 g#
b1111111111110 f#
b11111111111110 d#
b11111111111110 c#
b11111111111100 b#
b1111111111110 a#
b1111111111110 `#
b111111111111 ^#
b1111111111111 ]#
b111111111111 \#
b1111111111111 [#
b1111111111110 Z#
b111111111111 X#
b1111111111111 W#
b111111111111 V#
b1111111111111 U#
b1111111111110 T#
b111111111111 R#
b1111111111111 Q#
b111111111111 P#
b1111111111111 O#
b1111111111110 N#
b111111111111 L#
b1111111111111 K#
b111111111111 J#
b1111111111111 I#
b1111111111110 H#
b111111111111000 G#
b11111111 F#
b0 E#
b0 D#
bx C#
b111111111111 B#
b0 A#
b111111111111 @#
0?#
1>#
b0 =#
bx <#
b111111111111 ;#
b0 :#
b111111111111 9#
08#
17#
b0 6#
bx 5#
b111111111111 4#
b0 3#
b111111111111 2#
01#
10#
b0 /#
bx .#
b111111111111 -#
b0 ,#
b111111111111 +#
0*#
1)#
b0 (#
bx '#
b111111111111 &#
b0 %#
b111111111111 $#
0##
1"#
b0 !#
bx ~"
b111111111111 }"
b0 |"
b111111111111 {"
0z"
1y"
b0 x"
bx w"
b111111111111 v"
b0 u"
b111111111111 t"
0s"
1r"
b0 q"
bx p"
b111111111111 o"
b0 n"
b111111111111 m"
0l"
1k"
b0 j"
bx i"
b111111111111100 g"
b111111111111100 f"
b111111111111000 e"
b11111111111100 d"
b11111111111100 c"
b11111111111110 a"
b11111111111110 `"
b11111111111100 _"
b1111111111110 ^"
b1111111111110 ]"
b11111111111110 ["
b11111111111110 Z"
b11111111111100 Y"
b1111111111110 X"
b1111111111110 W"
b111111111111 U"
b1111111111111 T"
b111111111111 S"
b1111111111111 R"
b1111111111110 Q"
b111111111111 O"
b1111111111111 N"
b111111111111 M"
b1111111111111 L"
b1111111111110 K"
b111111111111 I"
b1111111111111 H"
b111111111111 G"
b1111111111111 F"
b1111111111110 E"
b111111111111 C"
b1111111111111 B"
b111111111111 A"
b1111111111111 @"
b1111111111110 ?"
b111111111111000 >"
b11111111 ="
b0 <"
b0 ;"
bx :"
b111111111111000 8"
b1111111111110000 7"
06"
b111111111111000 5"
b111111111111000 4"
b111111111111000 3"
b0z00000000 ""
b0x00000000 !"
b0 ~
b0 }
b0 |
b0 {
b1111111111110000 y
0x
b0 w
b0 v
b1111111111110000 u
b1111111111110000 t
b1111111111110000 s
0r
b0x00000000000000000001111111111110000 q
b0x00000000 p
b1111111111110000 o
b0 n
b1111111111110000 m
b0 l
b0x00000000000000000001111111111110000 k
b1111111111110000 j
b1111111111110000 i
b111111111111000 h
b111111111111000 g
b111111111111000 f
b0x00000000000000000001111111111110000 e
b0 d
b0 c
b1011 _
b0 ^
b0 ]
b0 \
b0 [
b0 Z
b1000 Y
b1000 X
b0 W
bx V
b0 U
b0 T
b11111111 S
b0 R
b1000 Q
b1000 P
b0 O
bx N
b0 M
b0 L
b11111111 K
b0 J
b0 I
b0 H
b0 G
b11111111 F
b0 E
bx D
b0 C
bx B
b0 A
b0 @
b0 ?
b0 >
b111111111111000 =
b111111111111000 <
b0x00000000000000000001111111111110000 ;
b11111111 :
b0 9
b0 8
17
bx 6
b0 5
bx 4
b0 3
b0 2
b0 1
b0 0
b0 /
b0 .
b0 -
b0 ,
0+
0*
0)
0(
0'
0&
0%
b0 $
b0 #
b0x00000000000000000001111111111110000 "
1!
$end
#5000
1'
#10000
0'
#15000
1'
#20000
0'
1)
#25000
1'
#30000
b1000 Q
b1000 P
bx 6
bx D
bx N
bx :"
b1 ?
b1 H
b1 L
b1 ]
0'
b1 $
b1 1
b1 [
1%
b1 /
b0 P$
0\$
0R$
b10010001101000101011001111000100110101011110011011110111100000001001000110100010101100111100010011010101111001101111011110000000100100011010001010110011110001001101010111100110111101111 Q$
b0 [$
b0 Z$
b0 Y$
b0 X$
b0 W$
b0 V$
b0 U$
b0 T$
b10001101111001101011010110001011111010001010111110010101001000000010100000110001001100100010110101100010011010010111010000101001 S$
#35000
1'
#40000
b1000 Q
b1000 P
bx 6
bx D
bx N
bx :"
b10 ?
b10 H
b10 L
b10 ]
0'
b10 $
b10 1
b10 [
#45000
1'
#50000
b1000 Q
b1000 P
bx 6
bx D
bx N
bx :"
b100 ?
b100 H
b100 L
b100 ]
0'
b100 $
b100 1
b100 [
#55000
1'
#60000
b1000 Q
b1000 P
bx 6
bx D
bx N
bx :"
b1000 ?
b1000 H
b1000 L
b1000 ]
0'
b1000 $
b1000 1
b1000 [
#65000
1'
#70000
b1000 Q
b1000 P
bx 6
bx D
bx N
bx :"
b10000 ?
b10000 H
b10000 L
b10000 ]
0'
b10000 $
b10000 1
b10000 [
#75000
1'
#80000
b1000 Q
b1000 P
bx 6
bx D
bx N
bx :"
b100000 ?
b100000 H
b100000 L
b100000 ]
0'
b100000 $
b100000 1
b100000 [
#85000
1'
#90000
b1000 Q
b1000 P
bx 6
bx D
bx N
bx :"
b1000000 ?
b1000000 H
b1000000 L
b1000000 ]
0'
b1000000 $
b1000000 1
b1000000 [
#95000
1'
#100000
b0 i"
b0 p"
b0 w"
b0 ~"
b0 '#
b0 .#
b0 5#
b0 <#
b1000 Q
b1000 P
b0 6
b0 D
b0 N
b0 :"
b10000000 ?
b10000000 H
b10000000 L
b10000000 ]
0'
b10000000 $
b10000000 1
b10000000 [
#105000
1'
#110000
b0 K$
0G$
b0 D$
0@$
b0 =$
09$
b0 /$
0+$
b0 ($
0$$
b0 !$
0{#
b0 x#
0t#
b0 B#
0>#
b0 ;#
07#
b0 4#
00#
b0 &#
0"#
b0 }"
0y"
b0 v"
0r"
b0 o"
0k"
b1000 Q
b1000 P
b1000 Y
b1000 X
bx 4
bx B
bx V
bx C#
b10000 :
b10000 F
b10000 K
b10000 S
b10000 ="
b10000 F#
b10000 N$
0'
1*
b10010001101000101011001111000100110101011110011011110111100000001001000110100010101100111100010011010101111001101111011110000000100100011010001010110011110001001101010111100110111101111 ,
b10010001101000101011001111000100110101011110011011110111100000001001000110100010101100111100010011010101111001101111011110000000100100011010001010110011110001001101010111100110111101111 2
b10010001101000101011001111000100110101011110011011110111100000001001000110100010101100111100010011010101111001101111011110000000100100011010001010110011110001001101010111100110111101111 M$
#115000
0!
b1 d
1'
#120000
0'
0*
#125000
b0xx00000000 p
b0xx00000000 !"
b0xx00000000000000000101111111111010000 "
b0xx00000000000000000101111111111010000 ;
b0xx00000000000000000101111111111010000 e
b0xx00000000000000000101111111111010000 k
b0xx00000000000000000101111111111010000 q
b101111111111010000 o
b0x000000000 ~
b111111111111 =$
19$
b111111111111 !$
1{#
b111111111111 4#
10#
b111111111111 v"
1r"
b1000 Q
b1000 P
b1000 Y
b1000 X
bx 4
bx B
bx V
bx C#
b101111111111010000 y
b11111111111100000 w
b11111111111100000 v
b0x000000000 |
b110010 :
b110010 F
b110010 K
b110010 S
b110010 ="
b110010 F#
b110010 N$
b0x000000000000000000011111111111100000 l
b0x000000000000000000011111111111100000 n
b1 8
b1 c
b1 L$
1'
#130000
0'
#135000
b0xxx00000000 p
b0xxx00000000 !"
b111111111111 D$
1@$
b111111111111 ($
1$$
b111111111111 ;#
17#
b111111111111 }"
1y"
b0 =$
09$
b0 !$
0{#
b0 4#
00#
b0 v"
0r"
b1000 Q
b1000 P
b1000 Y
b1000 X
bx 4
bx B
bx V
bx C#
b0xxx00000000000000001101111111110010000 "
b0xxx00000000000000001101111111110010000 ;
b0xxx00000000000000001101111111110010000 e
b0xxx00000000000000001101111111110010000 k
b0xxx00000000000000001101111111110010000 q
b1101111111110010000 o
b0xx000000000 ~
b1010100 :
b1010100 F
b1010100 K
b1010100 S
b1010100 ="
b1010100 F#
b1010100 N$
b1101111111110010000 y
b1011111111110100000 w
b1011111111110100000 v
b0xx000000000 |
b10 8
b10 c
b10 L$
b0xx000000000000000001011111111110100000 l
b0xx000000000000000001011111111110100000 n
1'
#140000
0'
#145000
b0xxxx00000000 p
b0xxxx00000000 !"
b0xxxx00000000000000011101111111100010000 "
b0xxxx00000000000000011101111111100010000 ;
b0xxxx00000000000000011101111111100010000 e
b0xxxx00000000000000011101111111100010000 k
b0xxxx00000000000000011101111111100010000 q
b11101111111100010000 o
b0xxx000000000 ~
b111111111111 =$
19$
b111111111111 !$
1{#
b111111111111 4#
10#
b111111111111 v"
1r"
b1000 Q
b1000 P
b1000 Y
b1000 X
bx 4
bx B
bx V
bx C#
b11101111111100010000 y
b11011111111100100000 w
b11011111111100100000 v
b0xxx000000000 |
b1110110 :
b1110110 F
b1110110 K
b1110110 S
b1110110 ="
b1110110 F#
b1110110 N$
b0xxx000000000000000011011111111100100000 l
b0xxx000000000000000011011111111100100000 n
b11 8
b11 c
b11 L$
1'
#150000
0'
#155000
b0xxxxx00000000 p
b0xxxxx00000000 !"
b111111111111 K$
1G$
b111111111111 /$
1+$
b111111111111 B#
1>#
b111111111111 &#
1"#
b0 D$
0@$
b0 =$
09$
b0 ($
0$$
b0 !$
0{#
b0 ;#
07#
b0 4#
00#
b0 }"
0y"
b0 v"
0r"
b1000 Q
b1000 P
b1000 Y
b1000 X
bx 4
bx B
bx V
bx C#
b111111111111 B"
b1111111111110 ?"
b1111111111110 W"
b111111111111 @"
b111111111111 H"
b1111111111110 E"
b1111111111110 X"
b111111111111 F"
b111111111111 N"
b1111111111110 K"
b1111111111110 ]"
b111111111111 L"
b111111111111 T"
b1111111111110 Q"
b1111111111110 ^"
b111111111111 R"
b1111111111110 ["
b11111111111100 Y"
b11111111111100 c"
b1111111111110 Z"
b1111111111110 a"
b11111111111100 _"
b11111111111100 d"
b1111111111110 `"
b11111111111100 g"
b1111111111110000 s
b1111111111110000 u
b1111111111110000 i
b1111111111110000 j
b1111111111110000 m
b1111111111110000 t
b1111111111110000 7"
b111111111111000 3"
b111111111111000 =
b111111111111000 h
b111111111111000 8"
b111111111111000 >"
b111111111111000 e"
b11111111111100 f"
b111111111111 K#
b1111111111110 H#
b1111111111110 `#
b111111111111 I#
b111111111111 Q#
b1111111111110 N#
b1111111111110 a#
b111111111111 O#
b111111111111 W#
b1111111111110 T#
b1111111111110 f#
b111111111111 U#
b111111111111 ]#
b1111111111110 Z#
b1111111111110 g#
b111111111111 [#
b1111111111110 d#
b11111111111100 b#
b11111111111100 l#
b1111111111110 c#
b1111111111110 j#
b11111111111100 h#
b11111111111100 m#
b1111111111110 i#
b11111111111100 p#
b111111111111000 <
b111111111111000 g
b111111111111000 G#
b111111111111000 n#
b11111111111100 o#
b0xxxxx00000000000000111101111111000010000 "
b0xxxxx00000000000000111101111111000010000 ;
b0xxxxx00000000000000111101111111000010000 e
b0xxxxx00000000000000111101111111000010000 k
b0xxxxx00000000000000111101111111000010000 q
b111101111111000010000 o
b0xxxx000000000 ~
b10011000 :
b10011000 F
b10011000 K
b10011000 S
b10011000 ="
b10011000 F#
b10011000 N$
07
b111101111111000010000 y
b111011111111000100000 w
b111011111111000100000 v
b0xxxx000000000 |
b100 8
b100 c
b100 L$
b0xxxx000000000000000111011111111000100000 l
b0xxxx000000000000000111011111111000100000 n
1'
#160000
0'
