DCIM_Macro/tb_top.vcd
$date
	Fri Aug 08 20:26:45 2025
$end
$version
	Icarus Verilog
$end
$timescale
	1ps
$end
$scope module top_tb $end
$var wire 1 ! st $end
$var wire 51 " nout [50:0] $end
$var reg 24 # D [23:0] $end
$var reg 8 $ WA [7:0] $end
$var reg 1 % acm_en $end
$var reg 1 & cima $end
$var reg 1 ' clk $end
$var reg 1 ( inwidth $end
$var reg 1 ) rstn $end
$var reg 1 * start $end
$var reg 1 + wwidth $end
$var reg 192 , xin0 [191:0] $end
$scope module dut $end
$var wire 24 - D [23:0] $end
$var wire 8 . WA [7:0] $end
$var wire 1 % acm_en $end
$var wire 1 & cima $end
$var wire 1 ' clk $end
$var wire 1 ( inwidth $end
$var wire 1 ) rstn $end
$var wire 1 * start $end
$var wire 1 + wwidth $end
$var wire 192 / xin0 [191:0] $end
$var wire 96 0 wb1_b [95:0] $end
$var wire 96 1 wb1_a [95:0] $end
$var wire 96 2 wb0_b [95:0] $end
$var wire 96 3 wb0_a [95:0] $end
$var wire 1 4 sus $end
$var wire 1 ! st $end
$var wire 6 5 sel [5:0] $end
$var wire 8 6 rwlb_row1 [7:0] $end
$var wire 8 7 rwlb_row0 [7:0] $end
$var wire 51 8 nout [50:0] $end
$var wire 15 9 mac_out_low [14:0] $end
$var wire 15 : mac_out_high [14:0] $end
$var wire 96 ; active_wb_b [95:0] $end
$var wire 96 < active_wb_a [95:0] $end
$var wire 8 = WA1 [7:0] $end
$var wire 8 > WA0 [7:0] $end
$var wire 24 ? D1 [23:0] $end
$scope module array_inst $end
$var wire 96 @ wb1_b [95:0] $end
$var wire 96 A wb1_a [95:0] $end
$var wire 96 B wb0_b [95:0] $end
$var wire 96 C wb0_a [95:0] $end
$var wire 8 D WA1 [7:0] $end
$var wire 8 E WA0 [7:0] $end
$var wire 24 F D [23:0] $end
$scope module bank0_inst $end
$var wire 96 G wb_a [95:0] $end
$var wire 96 H wb_b [95:0] $end
$var wire 8 I WA [7:0] $end
$var wire 24 J D [23:0] $end
$upscope $end
$scope module bank1_inst $end
$var wire 96 K wb_a [95:0] $end
$var wire 96 L wb_b [95:0] $end
$var wire 8 M WA [7:0] $end
$var wire 24 N D [23:0] $end
$upscope $end
$upscope $end
$scope module ctrl_inst $end
$var wire 24 O D [23:0] $end
$var wire 8 P WA [7:0] $end
$var wire 1 & cima $end
$var reg 24 Q D1 [23:0] $end
$var reg 8 R WA0 [7:0] $end
$var reg 8 S WA1 [7:0] $end
$upscope $end
$scope module gctrl_inst $end
$var wire 1 ' clk $end
$var wire 1 ( inwidth $end
$var wire 1 ) rstn $end
$var wire 1 * start $end
$var wire 6 T max_count [5:0] $end
$var parameter 2 U COUNT $end
$var parameter 2 V DONE $end
$var parameter 2 W IDLE $end
$var reg 6 X sel [5:0] $end
$var reg 1 ! st $end
$var reg 2 Y state [1:0] $end
$upscope $end
$scope module global_io_inst $end
$var wire 1 % acm_en $end
$var wire 1 ' clk $end
$var wire 1 ) rstn $end
$var wire 1 ! st $end
$var wire 1 + wwidth $end
$var wire 51 Z nout [50:0] $end
$var wire 15 [ macout_b [14:0] $end
$var wire 15 \ macout_a [14:0] $end
$var wire 27 ] adder_b_input [26:0] $end
$var wire 27 ^ adder_a_input [26:0] $end
$var wire 27 _ add_out [26:0] $end
$scope module acc_inst $end
$var wire 27 ` a [26:0] $end
$var wire 1 % acm_en $end
$var wire 1 ' clk $end
$var wire 51 a nout [50:0] $end
$var wire 1 ) rstn $end
$var wire 1 ! st $end
$var wire 51 b sum_result [50:0] $end
$var wire 51 c shifted_nout_1 [50:0] $end
$var reg 51 d nout_1 [50:0] $end
$scope module se_cla_inst $end
$var wire 27 e a [26:0] $end
$var wire 51 f b [50:0] $end
$var wire 27 g sum_low [26:0] $end
$var wire 24 h sum_high [23:0] $end
$var wire 51 i sum [50:0] $end
$var wire 1 j carry_out $end
$var wire 51 k a_ext [50:0] $end
$scope module add_low $end
$var wire 27 l a [26:0] $end
$var wire 28 m a_signed [27:0] $end
$var wire 27 n b [26:0] $end
$var wire 28 o b_signed [27:0] $end
$var wire 1 p sus $end
$var wire 28 q sum [27:0] $end
$var parameter 32 r width $end
$upscope $end
$scope module s_cla_inst $end
$var wire 24 s a [23:0] $end
$var wire 24 t b [23:0] $end
$var wire 1 j cin $end
$var wire 24 u g [23:0] $end
$var wire 24 v p [23:0] $end
$var wire 24 w sum [23:0] $end
$var wire 7 x c_block [6:0] $end
$var wire 25 y c [24:0] $end
$var wire 6 z bp [5:0] $end
$var wire 6 { bg [5:0] $end
$upscope $end
$upscope $end
$upscope $end
$scope module add_inst $end
$var wire 27 | a [26:0] $end
$var wire 28 } a_signed [27:0] $end
$var wire 27 ~ b [26:0] $end
$var wire 28 !" b_signed [27:0] $end
$var wire 1 "" sus $end
$var wire 28 #" sum [27:0] $end
$var parameter 32 $" width $end
$upscope $end
$upscope $end
$scope module mac_high_bits_inst $end
$var wire 1 4 sus $end
$var wire 96 %" wb0 [95:0] $end
$var wire 96 &" wb1 [95:0] $end
$var wire 8 '" rwlb_row1 [7:0] $end
$var wire 8 (" rwlb_row0 [7:0] $end
$var wire 15 )" mac_out [14:0] $end
$scope module add1_0 $end
$var wire 1 4 sus $end
$var wire 13 *" sum [12:0] $end
$var wire 13 +" b_signed [12:0] $end
$var wire 12 ," b [11:0] $end
$var wire 13 -" a_signed [12:0] $end
$var wire 12 ." a [11:0] $end
$var parameter 32 /" width $end
$upscope $end
$scope module add1_1 $end
$var wire 1 4 sus $end
$var wire 13 0" sum [12:0] $end
$var wire 13 1" b_signed [12:0] $end
$var wire 12 2" b [11:0] $end
$var wire 13 3" a_signed [12:0] $end
$var wire 12 4" a [11:0] $end
$var parameter 32 5" width $end
$upscope $end
$scope module add1_2 $end
$var wire 1 4 sus $end
$var wire 13 6" sum [12:0] $end
$var wire 13 7" b_signed [12:0] $end
$var wire 12 8" b [11:0] $end
$var wire 13 9" a_signed [12:0] $end
$var wire 12 :" a [11:0] $end
$var parameter 32 ;" width $end
$upscope $end
$scope module add1_3 $end
$var wire 1 4 sus $end
$var wire 13 <" sum [12:0] $end
$var wire 13 =" b_signed [12:0] $end
$var wire 12 >" b [11:0] $end
$var wire 13 ?" a_signed [12:0] $end
$var wire 12 @" a [11:0] $end
$var parameter 32 A" width $end
$upscope $end
$scope module add2_0 $end
$var wire 13 B" a [12:0] $end
$var wire 13 C" b [12:0] $end
$var wire 1 4 sus $end
$var wire 14 D" sum [13:0] $end
$var wire 14 E" b_signed [13:0] $end
$var wire 14 F" a_signed [13:0] $end
$var parameter 32 G" width $end
$upscope $end
$scope module add2_1 $end
$var wire 13 H" a [12:0] $end
$var wire 13 I" b [12:0] $end
$var wire 1 4 sus $end
$var wire 14 J" sum [13:0] $end
$var wire 14 K" b_signed [13:0] $end
$var wire 14 L" a_signed [13:0] $end
$var parameter 32 M" width $end
$upscope $end
$scope module add3_0 $end
$var wire 14 N" a [13:0] $end
$var wire 14 O" b [13:0] $end
$var wire 1 4 sus $end
$var wire 15 P" sum [14:0] $end
$var wire 15 Q" b_signed [14:0] $end
$var wire 15 R" a_signed [14:0] $end
$var parameter 32 S" width $end
$upscope $end
$scope module mult0 $end
$var wire 12 T" a [11:0] $end
$var wire 12 U" b [11:0] $end
$var wire 1 V" c $end
$var wire 1 W" d $end
$var wire 12 X" e [11:0] $end
$var wire 12 Y" d_ext [11:0] $end
$var wire 12 Z" c_ext [11:0] $end
$upscope $end
$scope module mult1 $end
$var wire 12 [" a [11:0] $end
$var wire 12 \" b [11:0] $end
$var wire 1 ]" c $end
$var wire 1 ^" d $end
$var wire 12 _" e [11:0] $end
$var wire 12 `" d_ext [11:0] $end
$var wire 12 a" c_ext [11:0] $end
$upscope $end
$scope module mult2 $end
$var wire 12 b" a [11:0] $end
$var wire 12 c" b [11:0] $end
$var wire 1 d" c $end
$var wire 1 e" d $end
$var wire 12 f" e [11:0] $end
$var wire 12 g" d_ext [11:0] $end
$var wire 12 h" c_ext [11:0] $end
$upscope $end
$scope module mult3 $end
$var wire 12 i" a [11:0] $end
$var wire 12 j" b [11:0] $end
$var wire 1 k" c $end
$var wire 1 l" d $end
$var wire 12 m" e [11:0] $end
$var wire 12 n" d_ext [11:0] $end
$var wire 12 o" c_ext [11:0] $end
$upscope $end
$scope module mult4 $end
$var wire 12 p" a [11:0] $end
$var wire 12 q" b [11:0] $end
$var wire 1 r" c $end
$var wire 1 s" d $end
$var wire 12 t" e [11:0] $end
$var wire 12 u" d_ext [11:0] $end
$var wire 12 v" c_ext [11:0] $end
$upscope $end
$scope module mult5 $end
$var wire 12 w" a [11:0] $end
$var wire 12 x" b [11:0] $end
$var wire 1 y" c $end
$var wire 1 z" d $end
$var wire 12 {" e [11:0] $end
$var wire 12 |" d_ext [11:0] $end
$var wire 12 }" c_ext [11:0] $end
$upscope $end
$scope module mult6 $end
$var wire 12 ~" a [11:0] $end
$var wire 12 !# b [11:0] $end
$var wire 1 "# c $end
$var wire 1 ## d $end
$var wire 12 $# e [11:0] $end
$var wire 12 %# d_ext [11:0] $end
$var wire 12 &# c_ext [11:0] $end
$upscope $end
$scope module mult7 $end
$var wire 12 '# a [11:0] $end
$var wire 12 (# b [11:0] $end
$var wire 1 )# c $end
$var wire 1 *# d $end
$var wire 12 +# e [11:0] $end
$var wire 12 ,# d_ext [11:0] $end
$var wire 12 -# c_ext [11:0] $end
$upscope $end
$upscope $end
$scope module mac_low_bits_inst $end
$var wire 1 4 sus $end
$var wire 96 .# wb0 [95:0] $end
$var wire 96 /# wb1 [95:0] $end
$var wire 8 0# rwlb_row1 [7:0] $end
$var wire 8 1# rwlb_row0 [7:0] $end
$var wire 15 2# mac_out [14:0] $end
$scope module add1_0 $end
$var wire 1 4 sus $end
$var wire 13 3# sum [12:0] $end
$var wire 13 4# b_signed [12:0] $end
$var wire 12 5# b [11:0] $end
$var wire 13 6# a_signed [12:0] $end
$var wire 12 7# a [11:0] $end
$var parameter 32 8# width $end
$upscope $end
$scope module add1_1 $end
$var wire 1 4 sus $end
$var wire 13 9# sum [12:0] $end
$var wire 13 :# b_signed [12:0] $end
$var wire 12 ;# b [11:0] $end
$var wire 13 <# a_signed [12:0] $end
$var wire 12 =# a [11:0] $end
$var parameter 32 ># width $end
$upscope $end
$scope module add1_2 $end
$var wire 1 4 sus $end
$var wire 13 ?# sum [12:0] $end
$var wire 13 @# b_signed [12:0] $end
$var wire 12 A# b [11:0] $end
$var wire 13 B# a_signed [12:0] $end
$var wire 12 C# a [11:0] $end
$var parameter 32 D# width $end
$upscope $end
$scope module add1_3 $end
$var wire 1 4 sus $end
$var wire 13 E# sum [12:0] $end
$var wire 13 F# b_signed [12:0] $end
$var wire 12 G# b [11:0] $end
$var wire 13 H# a_signed [12:0] $end
$var wire 12 I# a [11:0] $end
$var parameter 32 J# width $end
$upscope $end
$scope module add2_0 $end
$var wire 13 K# a [12:0] $end
$var wire 13 L# b [12:0] $end
$var wire 1 4 sus $end
$var wire 14 M# sum [13:0] $end
$var wire 14 N# b_signed [13:0] $end
$var wire 14 O# a_signed [13:0] $end
$var parameter 32 P# width $end
$upscope $end
$scope module add2_1 $end
$var wire 13 Q# a [12:0] $end
$var wire 13 R# b [12:0] $end
$var wire 1 4 sus $end
$var wire 14 S# sum [13:0] $end
$var wire 14 T# b_signed [13:0] $end
$var wire 14 U# a_signed [13:0] $end
$var parameter 32 V# width $end
$upscope $end
$scope module add3_0 $end
$var wire 14 W# a [13:0] $end
$var wire 14 X# b [13:0] $end
$var wire 1 4 sus $end
$var wire 15 Y# sum [14:0] $end
$var wire 15 Z# b_signed [14:0] $end
$var wire 15 [# a_signed [14:0] $end
$var parameter 32 \# width $end
$upscope $end
$scope module mult0 $end
$var wire 12 ]# a [11:0] $end
$var wire 12 ^# b [11:0] $end
$var wire 1 _# c $end
$var wire 1 `# d $end
$var wire 12 a# e [11:0] $end
$var wire 12 b# d_ext [11:0] $end
$var wire 12 c# c_ext [11:0] $end
$upscope $end
$scope module mult1 $end
$var wire 12 d# a [11:0] $end
$var wire 12 e# b [11:0] $end
$var wire 1 f# c $end
$var wire 1 g# d $end
$var wire 12 h# e [11:0] $end
$var wire 12 i# d_ext [11:0] $end
$var wire 12 j# c_ext [11:0] $end
$upscope $end
$scope module mult2 $end
$var wire 12 k# a [11:0] $end
$var wire 12 l# b [11:0] $end
$var wire 1 m# c $end
$var wire 1 n# d $end
$var wire 12 o# e [11:0] $end
$var wire 12 p# d_ext [11:0] $end
$var wire 12 q# c_ext [11:0] $end
$upscope $end
$scope module mult3 $end
$var wire 12 r# a [11:0] $end
$var wire 12 s# b [11:0] $end
$var wire 1 t# c $end
$var wire 1 u# d $end
$var wire 12 v# e [11:0] $end
$var wire 12 w# d_ext [11:0] $end
$var wire 12 x# c_ext [11:0] $end
$upscope $end
$scope module mult4 $end
$var wire 12 y# a [11:0] $end
$var wire 12 z# b [11:0] $end
$var wire 1 {# c $end
$var wire 1 |# d $end
$var wire 12 }# e [11:0] $end
$var wire 12 ~# d_ext [11:0] $end
$var wire 12 !$ c_ext [11:0] $end
$upscope $end
$scope module mult5 $end
$var wire 12 "$ a [11:0] $end
$var wire 12 #$ b [11:0] $end
$var wire 1 $$ c $end
$var wire 1 %$ d $end
$var wire 12 &$ e [11:0] $end
$var wire 12 '$ d_ext [11:0] $end
$var wire 12 ($ c_ext [11:0] $end
$upscope $end
$scope module mult6 $end
$var wire 12 )$ a [11:0] $end
$var wire 12 *$ b [11:0] $end
$var wire 1 +$ c $end
$var wire 1 ,$ d $end
$var wire 12 -$ e [11:0] $end
$var wire 12 .$ d_ext [11:0] $end
$var wire 12 /$ c_ext [11:0] $end
$upscope $end
$scope module mult7 $end
$var wire 12 0$ a [11:0] $end
$var wire 12 1$ b [11:0] $end
$var wire 1 2$ c $end
$var wire 1 3$ d $end
$var wire 12 4$ e [11:0] $end
$var wire 12 5$ d_ext [11:0] $end
$var wire 12 6$ c_ext [11:0] $end
$upscope $end
$upscope $end
$scope module rwldrv_inst $end
$var wire 1 & cima $end
$var wire 1 ( inwidth $end
$var wire 6 7$ sel [5:0] $end
$var wire 192 8$ xin0 [191:0] $end
$var reg 8 9$ rwlb_row0 [7:0] $end
$var reg 8 :$ rwlb_row1 [7:0] $end
$scope begin RWLDRV_LOGIC $end
$var reg 6 ;$ bit_to_select [5:0] $end
$var reg 8 <$ selected_bits [7:0] $end
$var integer 32 =$ i [31:0] $end
$upscope $end
$upscope $end
$upscope $end
$upscope $end
$enddefinitions $end
$comment Show the parameter values. $end
$dumpall
b1110 \#
b1101 V#
b1101 P#
b1100 J#
b1100 D#
b1100 >#
b1100 8#
b1110 S"
b1101 M"
b1101 G"
b1100 A"
b1100 ;"
b1100 5"
b1100 /"
b11011 $"
b11011 r
b0 W
b10 V
b1 U
$end
#0
$dumpvars
b1000 =$
b0 <$
b1011 ;$
b11111111 :$
b11111111 9$
b0 8$
b0 7$
b111111111111 6$
b111111111111 5$
b0 4$
13$
12$
bx 1$
bx 0$
b111111111111 /$
b111111111111 .$
b0 -$
1,$
1+$
bx *$
bx )$
b111111111111 ($
b111111111111 '$
b0 &$
1%$
1$$
bx #$
bx "$
b111111111111 !$
b111111111111 ~#
b0 }#
1|#
1{#
bx z#
bx y#
b111111111111 x#
b111111111111 w#
b0 v#
1u#
1t#
bx s#
bx r#
b111111111111 q#
b111111111111 p#
b0 o#
1n#
1m#
bx l#
bx k#
b111111111111 j#
b111111111111 i#
b0 h#
1g#
1f#
bx e#
bx d#
b111111111111 c#
b111111111111 b#
b0 a#
1`#
1_#
bx ^#
bx ]#
b0 [#
b0 Z#
b0 Y#
b0 X#
b0 W#
b0 U#
b0 T#
b0 S#
b0 R#
b0 Q#
b0 O#
b0 N#
b0 M#
b0 L#
b0 K#
b0 I#
b0 H#
b0 G#
b0 F#
b0 E#
b0 C#
b0 B#
b0 A#
b0 @#
b0 ?#
b0 =#
b0 <#
b0 ;#
b0 :#
b0 9#
b0 7#
b0 6#
b0 5#
b0 4#
b0 3#
b0 2#
b11111111 1#
b11111111 0#
bx /#
bx .#
b111111111111 -#
b111111111111 ,#
b0 +#
1*#
1)#
bx (#
bx '#
b111111111111 &#
b111111111111 %#
b0 $#
1##
1"#
bx !#
bx ~"
b111111111111 }"
b111111111111 |"
b0 {"
1z"
1y"
bx x"
bx w"
b111111111111 v"
b111111111111 u"
b0 t"
1s"
1r"
bx q"
bx p"
b111111111111 o"
b111111111111 n"
b0 m"
1l"
1k"
bx j"
bx i"
b111111111111 h"
b111111111111 g"
b0 f"
1e"
1d"
bx c"
bx b"
b111111111111 a"
b111111111111 `"
b0 _"
1^"
1]"
bx \"
bx ["
b111111111111 Z"
b111111111111 Y"
b0 X"
1W"
1V"
bx U"
bx T"
b0 R"
b0 Q"
b0 P"
b0 O"
b0 N"
b0 L"
b0 K"
b0 J"
b0 I"
b0 H"
b0 F"
b0 E"
b0 D"
b0 C"
b0 B"
b0 @"
b0 ?"
b0 >"
b0 ="
b0 <"
b0 :"
b0 9"
b0 8"
b0 7"
b0 6"
b0 4"
b0 3"
b0 2"
b0 1"
b0 0"
b0 ."
b0 -"
b0 ,"
b0 +"
b0 *"
b0 )"
b11111111 ("
b11111111 '"
bx &"
bx %"
b0 #"
0""
b0 !"
b0 ~
b0 }
b0 |
b0 {
b0 z
b0 y
b0 x
b0 w
b0 v
b0 u
b0 t
b0 s
b0 q
0p
b0 o
b0 n
b0 m
b0 l
b0 k
0j
b0 i
b0 h
b0 g
b0 f
b0 e
b0 d
b0 c
b0 b
b0 a
b0 `
b0 _
b0 ^
b0 ]
b0 \
b0 [
b0 Z
b0 Y
b0 X
b1011 T
b0 S
b0 R
b0 Q
b0 P
b0 O
b0 N
b0 M
bx L
bx K
b0 J
b0 I
bx H
bx G
b0 F
b0 E
b0 D
bx C
bx B
bx A
bx @
b0 ?
b0 >
b0 =
bx <
bx ;
b0 :
b0 9
b0 8
b11111111 7
b11111111 6
b0 5
14
bx 3
bx 2
bx 1
bx 0
b0 /
b0 .
b0 -
b0 ,
0+
0*
0)
0(
0'
0&
0%
b0 $
b0 #
b0 "
1!
$end
#5000
1'
#10000
0'
#15000
1'
#20000
0'
1)
#25000
1'
#30000
b111111111110 ]#
b111111111110 ^#
b111111111111 T"
b111111111111 U"
bx111111111110 <
bx111111111110 .#
bx111111111110 /#
bx111111111111 ;
bx111111111111 %"
bx111111111111 &"
bx111111111110 3
bx111111111110 C
bx111111111110 G
bx111111111111 2
bx111111111111 B
bx111111111111 H
b1 ?
b1 F
b1 J
b1 N
b1 Q
b1 >
b1 E
b1 I
b1 R
0'
b1 #
b1 -
b1 O
b1 $
b1 .
b1 P
1%
#35000
1'
#40000
b111111111101 d#
b111111111101 e#
b111111111111 ["
b111111111111 \"
bx111111111101111111111110 <
bx111111111101111111111110 .#
bx111111111101111111111110 /#
bx111111111111111111111111 ;
bx111111111111111111111111 %"
bx111111111111111111111111 &"
bx111111111101111111111110 3
bx111111111101111111111110 C
bx111111111101111111111110 G
bx111111111111111111111111 2
bx111111111111111111111111 B
bx111111111111111111111111 H
b10 ?
b10 F
b10 J
b10 N
b10 Q
b10 >
b10 E
b10 I
b10 R
0'
b10 #
b10 -
b10 O
b10 $
b10 .
b10 P
#45000
1'
#50000
b111111111100 k#
b111111111100 l#
b111111111111 b"
b111111111111 c"
bx111111111100111111111101111111111110 <
bx111111111100111111111101111111111110 .#
bx111111111100111111111101111111111110 /#
bx111111111111111111111111111111111111 ;
bx111111111111111111111111111111111111 %"
bx111111111111111111111111111111111111 &"
bx111111111100111111111101111111111110 3
bx111111111100111111111101111111111110 C
bx111111111100111111111101111111111110 G
bx111111111111111111111111111111111111 2
bx111111111111111111111111111111111111 B
bx111111111111111111111111111111111111 H
b11 ?
b11 F
b11 J
b11 N
b11 Q
b100 >
b100 E
b100 I
b100 R
0'
b11 #
b11 -
b11 O
b100 $
b100 .
b100 P
#55000
1'
#60000
b111111111011 r#
b111111111011 s#
b111111111111 i"
b111111111111 j"
bx111111111011111111111100111111111101111111111110 <
bx111111111011111111111100111111111101111111111110 .#
bx111111111011111111111100111111111101111111111110 /#
bx111111111111111111111111111111111111111111111111 ;
bx111111111111111111111111111111111111111111111111 %"
bx111111111111111111111111111111111111111111111111 &"
bx111111111011111111111100111111111101111111111110 3
bx111111111011111111111100111111111101111111111110 C
bx111111111011111111111100111111111101111111111110 G
bx111111111111111111111111111111111111111111111111 2
bx111111111111111111111111111111111111111111111111 B
bx111111111111111111111111111111111111111111111111 H
b100 ?
b100 F
b100 J
b100 N
b100 Q
b1000 >
b1000 E
b1000 I
b1000 R
0'
b100 #
b100 -
b100 O
b1000 $
b1000 .
b1000 P
#65000
1'
#70000
b111111111010 y#
b111111111010 z#
b111111111111 p"
b111111111111 q"
bx111111111010111111111011111111111100111111111101111111111110 <
bx111111111010111111111011111111111100111111111101111111111110 .#
bx111111111010111111111011111111111100111111111101111111111110 /#
bx111111111111111111111111111111111111111111111111111111111111 ;
bx111111111111111111111111111111111111111111111111111111111111 %"
bx111111111111111111111111111111111111111111111111111111111111 &"
bx111111111010111111111011111111111100111111111101111111111110 3
bx111111111010111111111011111111111100111111111101111111111110 C
bx111111111010111111111011111111111100111111111101111111111110 G
bx111111111111111111111111111111111111111111111111111111111111 2
bx111111111111111111111111111111111111111111111111111111111111 B
bx111111111111111111111111111111111111111111111111111111111111 H
b101 ?
b101 F
b101 J
b101 N
b101 Q
b10000 >
b10000 E
b10000 I
b10000 R
0'
b101 #
b101 -
b101 O
b10000 $
b10000 .
b10000 P
#75000
1'
#80000
b111111111001 "$
b111111111001 #$
b111111111111 w"
b111111111111 x"
bx111111111001111111111010111111111011111111111100111111111101111111111110 <
bx111111111001111111111010111111111011111111111100111111111101111111111110 .#
bx111111111001111111111010111111111011111111111100111111111101111111111110 /#
bx111111111111111111111111111111111111111111111111111111111111111111111111 ;
bx111111111111111111111111111111111111111111111111111111111111111111111111 %"
bx111111111111111111111111111111111111111111111111111111111111111111111111 &"
bx111111111001111111111010111111111011111111111100111111111101111111111110 3
bx111111111001111111111010111111111011111111111100111111111101111111111110 C
bx111111111001111111111010111111111011111111111100111111111101111111111110 G
bx111111111111111111111111111111111111111111111111111111111111111111111111 2
bx111111111111111111111111111111111111111111111111111111111111111111111111 B
bx111111111111111111111111111111111111111111111111111111111111111111111111 H
b110 ?
b110 F
b110 J
b110 N
b110 Q
b100000 >
b100000 E
b100000 I
b100000 R
0'
b110 #
b110 -
b110 O
b100000 $
b100000 .
b100000 P
#85000
1'
#90000
b111111111000 )$
b111111111000 *$
b111111111111 ~"
b111111111111 !#
bx111111111000111111111001111111111010111111111011111111111100111111111101111111111110 <
bx111111111000111111111001111111111010111111111011111111111100111111111101111111111110 .#
bx111111111000111111111001111111111010111111111011111111111100111111111101111111111110 /#
bx111111111111111111111111111111111111111111111111111111111111111111111111111111111111 ;
bx111111111111111111111111111111111111111111111111111111111111111111111111111111111111 %"
bx111111111111111111111111111111111111111111111111111111111111111111111111111111111111 &"
bx111111111000111111111001111111111010111111111011111111111100111111111101111111111110 3
bx111111111000111111111001111111111010111111111011111111111100111111111101111111111110 C
bx111111111000111111111001111111111010111111111011111111111100111111111101111111111110 G
bx111111111111111111111111111111111111111111111111111111111111111111111111111111111111 2
bx111111111111111111111111111111111111111111111111111111111111111111111111111111111111 B
bx111111111111111111111111111111111111111111111111111111111111111111111111111111111111 H
b111 ?
b111 F
b111 J
b111 N
b111 Q
b1000000 >
b1000000 E
b1000000 I
b1000000 R
0'
b111 #
b111 -
b111 O
b1000000 $
b1000000 .
b1000000 P
#95000
1'
#100000
b111111110111 0$
b111111110111 1$
b111111111111 '#
b111111111111 (#
b111111110111111111111000111111111001111111111010111111111011111111111100111111111101111111111110 <
b111111110111111111111000111111111001111111111010111111111011111111111100111111111101111111111110 .#
b111111110111111111111000111111111001111111111010111111111011111111111100111111111101111111111110 /#
b111111111111111111111111111111111111111111111111111111111111111111111111111111111111111111111111 ;
b111111111111111111111111111111111111111111111111111111111111111111111111111111111111111111111111 %"
b111111111111111111111111111111111111111111111111111111111111111111111111111111111111111111111111 &"
b111111110111111111111000111111111001111111111010111111111011111111111100111111111101111111111110 3
b111111110111111111111000111111111001111111111010111111111011111111111100111111111101111111111110 C
b111111110111111111111000111111111001111111111010111111111011111111111100111111111101111111111110 G
b111111111111111111111111111111111111111111111111111111111111111111111111111111111111111111111111 2
b111111111111111111111111111111111111111111111111111111111111111111111111111111111111111111111111 B
b111111111111111111111111111111111111111111111111111111111111111111111111111111111111111111111111 H
b1000 ?
b1000 F
b1000 J
b1000 N
b1000 Q
b10000000 >
b10000000 E
b10000000 I
b10000000 R
0'
b1000 #
b1000 -
b1000 O
b10000000 $
b10000000 .
b10000000 P
#105000
1'
#110000
b0 ?
b0 F
b0 J
b0 N
b0 Q
b0 >
b0 E
b0 I
b0 R
0'
b0 #
b0 -
b0 O
b0 $
b0 .
b0 P
#115000
1'
#120000
b100100 b
b100100 i
b100100 g
b100100 k
b100100 q
b100100 m
b100100 _
b100100 `
b100100 e
b100100 l
b11010 Z#
b100100 #"
b100100 }
b100100 ^
b100100 |
b100100 9
b100100 \
b100100 2#
b100100 Y#
b1010 [#
b1111 T#
b11010 S#
b11010 X#
b1011 U#
b111 N#
b1010 M#
b1010 W#
b11 O#
b1000 F#
b1111 E#
b1111 R#
b111 H#
b110 @#
b1011 ?#
b1011 Q#
b101 B#
b100 :#
b111 9#
b111 L#
b11 <#
b10 4#
b11 3#
b11 K#
b1 6#
b1000 G#
b1000 4$
b111 I#
b111 -$
b110 A#
b110 &$
b101 C#
b101 }#
b100 ;#
b100 v#
b11 =#
b11 o#
b10 5#
b10 h#
b1 7#
b1 a#
b0 6$
02$
b0 /$
0+$
b0 ($
0$$
b0 !$
0{#
b0 x#
0t#
b0 q#
0m#
b0 j#
0f#
b0 c#
0_#
b0 -#
0)#
b0 &#
0"#
b0 }"
0y"
b0 v"
0r"
b0 o"
0k"
b0 h"
0d"
b0 a"
0]"
b0 Z"
0V"
b0 7
b0 ("
b0 1#
b0 9$
b11111111 <$
b1000 =$
0'
b111111111111111111111111111111111111111111111111111111111111111111111111111111111111111111111111111111111111111111111111111111111111111111111111111111111111111111111111111111111111111111111111 ,
b111111111111111111111111111111111111111111111111111111111111111111111111111111111111111111111111111111111111111111111111111111111111111111111111111111111111111111111111111111111111111111111111 /
b111111111111111111111111111111111111111111111111111111111111111111111111111111111111111111111111111111111111111111111111111111111111111111111111111111111111111111111111111111111111111111111111 8$
#125000
1'
#130000
0'
1*
#135000
0!
b1 Y
1'
#140000
0'
0*
#145000
b1101100 b
b1101100 i
b1101100 g
b1101100 q
b1001000 o
b1001000 n
b1001000 c
b1001000 f
b1000 =$
b1010 ;$
b100100 "
b100100 8
b100100 Z
b100100 a
b100100 d
b1 5
b1 X
b1 7$
1'
#150000
0'
#155000
b11111100 b
b11111100 i
b11111100 g
b11111100 q
b11011000 o
b11011000 n
b1000 =$
b1001 ;$
b11011000 c
b11011000 f
b10 5
b10 X
b10 7$
b1101100 "
b1101100 8
b1101100 Z
b1101100 a
b1101100 d
1'
#160000
0'
#165000
b1000011100 b
b1000011100 i
b1000011100 g
b1000011100 q
b111111000 o
b111111000 n
b111111000 c
b111111000 f
b1000 =$
b1000 ;$
b11111100 "
b11111100 8
b11111100 Z
b11111100 a
b11111100 d
b11 5
b11 X
b11 7$
1'
#170000
0'
#175000
b10001011100 b
b10001011100 i
b10001011100 g
b10001011100 q
b10000111000 o
b10000111000 n
b1000 =$
b111 ;$
04
b10000111000 c
b10000111000 f
b100 5
b100 X
b100 7$
b1000011100 "
b1000011100 8
b1000011100 Z
b1000011100 a
b1000011100 d
1'
#180000
0'
#185000
b100011011100 b
b100011011100 i
b100011011100 g
b100011011100 q
b100010111000 o
b100010111000 n
b100010111000 c
b100010111000 f
b1000 =$
b110 ;$
b10001011100 "
b10001011100 8
b10001011100 Z
b10001011100 a
b10001011100 d
b101 5
b101 X
b101 7$
1'
#190000
0'
#195000
b1000111011100 b
b1000111011100 i
b1000111011100 g
b1000111011100 q
b1000110111000 o
b1000110111000 n
b1000 =$
b101 ;$
b1000110111000 c
b1000110111000 f
b110 5
b110 X
b110 7$
b100011011100 "
b100011011100 8
b100011011100 Z
b100011011100 a
b100011011100 d
1'
#200000
0'
#205000
b10001111011100 b
b10001111011100 i
b10001111011100 g
b10001111011100 q
b10001110111000 o
b10001110111000 n
b10001110111000 c
b10001110111000 f
b1000 =$
b100 ;$
b1000111011100 "
b1000111011100 8
b1000111011100 Z
b1000111011100 a
b1000111011100 d
b111 5
b111 X
b111 7$
1'
#210000
0'
#215000
b100011111011100 b
b100011111011100 i
b100011111011100 g
b100011111011100 q
b100011110111000 o
b100011110111000 n
b1000 =$
b11 ;$
b100011110111000 c
b100011110111000 f
b1000 5
b1000 X
b1000 7$
b10001111011100 "
b10001111011100 8
b10001111011100 Z
b10001111011100 a
b10001111011100 d
1'
#220000
0'
#225000
b1000111111011100 b
b1000111111011100 i
b1000111111011100 g
b1000111111011100 q
b1000111110111000 o
b1000111110111000 n
b1000111110111000 c
b1000111110111000 f
b1000 =$
b10 ;$
b100011111011100 "
b100011111011100 8
b100011111011100 Z
b100011111011100 a
b100011111011100 d
b1001 5
b1001 X
b1001 7$
1'
#230000
0'
#235000
b10001111111011100 b
b10001111111011100 i
b10001111111011100 g
b10001111111011100 q
b10001111110111000 o
b10001111110111000 n
b1000 =$
b1 ;$
b10001111110111000 c
b10001111110111000 f
b1010 5
b1010 X
b1010 7$
b1000111111011100 "
b1000111111011100 8
b1000111111011100 Z
b1000111111011100 a
b1000111111011100 d
1'
#240000
0'
