DCIM_Macro/tb_top_full.vcd
$date
	Fri Aug 08 19:21:14 2025
$end
$version
	Icarus Verilog
$end
$timescale
	1ps
$end
$scope module tb_top_full $end
$var wire 1 ! st $end
$var wire 51 " nout [50:0] $end
$var reg 24 # D [23:0] $end
$var reg 8 $ WA [7:0] $end
$var reg 1 % acm_en $end
$var reg 1 & cima $end
$var reg 1 ' clk $end
$var reg 1 ( inwidth $end
$var reg 1 ) rstn $end
$var reg 1 * start $end
$var reg 1 + wwidth $end
$var reg 192 , xin0 [191:0] $end
$var integer 32 - i [31:0] $end
$scope module dut $end
$var wire 24 . D [23:0] $end
$var wire 8 / WA [7:0] $end
$var wire 1 % acm_en $end
$var wire 1 & cima $end
$var wire 1 ' clk $end
$var wire 1 ( inwidth $end
$var wire 1 ) rstn $end
$var wire 1 * start $end
$var wire 1 + wwidth $end
$var wire 192 0 xin0 [191:0] $end
$var wire 96 1 wb1_b [95:0] $end
$var wire 96 2 wb1_a [95:0] $end
$var wire 96 3 wb0_b [95:0] $end
$var wire 96 4 wb0_a [95:0] $end
$var wire 1 5 sus $end
$var wire 1 ! st $end
$var wire 6 6 sel [5:0] $end
$var wire 8 7 rwlb_row1 [7:0] $end
$var wire 8 8 rwlb_row0 [7:0] $end
$var wire 51 9 nout [50:0] $end
$var wire 15 : mac_out_low [14:0] $end
$var wire 15 ; mac_out_high [14:0] $end
$var wire 96 < active_wb_b [95:0] $end
$var wire 96 = active_wb_a [95:0] $end
$var wire 8 > WA1 [7:0] $end
$var wire 8 ? WA0 [7:0] $end
$var wire 24 @ D1 [23:0] $end
$scope module array_inst $end
$var wire 96 A wb1_b [95:0] $end
$var wire 96 B wb1_a [95:0] $end
$var wire 96 C wb0_b [95:0] $end
$var wire 96 D wb0_a [95:0] $end
$var wire 8 E WA1 [7:0] $end
$var wire 8 F WA0 [7:0] $end
$var wire 24 G D [23:0] $end
$scope module bank0_inst $end
$var wire 96 H wb_a [95:0] $end
$var wire 96 I wb_b [95:0] $end
$var wire 8 J WA [7:0] $end
$var wire 24 K D [23:0] $end
$upscope $end
$scope module bank1_inst $end
$var wire 96 L wb_a [95:0] $end
$var wire 96 M wb_b [95:0] $end
$var wire 8 N WA [7:0] $end
$var wire 24 O D [23:0] $end
$upscope $end
$upscope $end
$scope module ctrl_inst $end
$var wire 24 P D [23:0] $end
$var wire 8 Q WA [7:0] $end
$var wire 1 & cima $end
$var reg 24 R D1 [23:0] $end
$var reg 8 S WA0 [7:0] $end
$var reg 8 T WA1 [7:0] $end
$upscope $end
$scope module gctrl_inst $end
$var wire 1 ' clk $end
$var wire 1 ( inwidth $end
$var wire 1 ) rstn $end
$var wire 1 * start $end
$var wire 6 U max_count [5:0] $end
$var parameter 2 V COUNT $end
$var parameter 2 W DONE $end
$var parameter 2 X IDLE $end
$var reg 6 Y sel [5:0] $end
$var reg 1 ! st $end
$var reg 2 Z state [1:0] $end
$upscope $end
$scope module global_io_inst $end
$var wire 1 % acm_en $end
$var wire 1 ' clk $end
$var wire 1 ) rstn $end
$var wire 1 ! st $end
$var wire 1 + wwidth $end
$var wire 51 [ nout [50:0] $end
$var wire 15 \ macout_b [14:0] $end
$var wire 15 ] macout_a [14:0] $end
$var wire 27 ^ adder_b_input [26:0] $end
$var wire 27 _ adder_a_input [26:0] $end
$var wire 27 ` add_out [26:0] $end
$scope module acc_inst $end
$var wire 27 a a [26:0] $end
$var wire 1 % acm_en $end
$var wire 1 ' clk $end
$var wire 51 b nout [50:0] $end
$var wire 1 ) rstn $end
$var wire 1 ! st $end
$var wire 51 c sum_result [50:0] $end
$var wire 51 d shifted_nout_1 [50:0] $end
$var reg 51 e nout_1 [50:0] $end
$scope module se_cla_inst $end
$var wire 27 f a [26:0] $end
$var wire 51 g b [50:0] $end
$var wire 27 h sum_low [26:0] $end
$var wire 24 i sum_high [23:0] $end
$var wire 51 j sum [50:0] $end
$var wire 1 k carry_out $end
$var wire 51 l a_ext [50:0] $end
$scope module add_low $end
$var wire 27 m a [26:0] $end
$var wire 28 n a_signed [27:0] $end
$var wire 27 o b [26:0] $end
$var wire 28 p b_signed [27:0] $end
$var wire 1 q sus $end
$var wire 28 r sum [27:0] $end
$var parameter 32 s width $end
$upscope $end
$scope module s_cla_inst $end
$var wire 24 t a [23:0] $end
$var wire 24 u b [23:0] $end
$var wire 1 k cin $end
$var wire 24 v g [23:0] $end
$var wire 24 w p [23:0] $end
$var wire 24 x sum [23:0] $end
$var wire 7 y c_block [6:0] $end
$var wire 25 z c [24:0] $end
$var wire 6 { bp [5:0] $end
$var wire 6 | bg [5:0] $end
$upscope $end
$upscope $end
$upscope $end
$scope module add_inst $end
$var wire 27 } a [26:0] $end
$var wire 28 ~ a_signed [27:0] $end
$var wire 27 !" b [26:0] $end
$var wire 28 "" b_signed [27:0] $end
$var wire 1 #" sus $end
$var wire 28 $" sum [27:0] $end
$var parameter 32 %" width $end
$upscope $end
$upscope $end
$scope module mac_high_bits_inst $end
$var wire 1 5 sus $end
$var wire 96 &" wb0 [95:0] $end
$var wire 96 '" wb1 [95:0] $end
$var wire 8 (" rwlb_row1 [7:0] $end
$var wire 8 )" rwlb_row0 [7:0] $end
$var wire 15 *" mac_out [14:0] $end
$scope module add1_0 $end
$var wire 1 5 sus $end
$var wire 13 +" sum [12:0] $end
$var wire 13 ," b_signed [12:0] $end
$var wire 12 -" b [11:0] $end
$var wire 13 ." a_signed [12:0] $end
$var wire 12 /" a [11:0] $end
$var parameter 32 0" width $end
$upscope $end
$scope module add1_1 $end
$var wire 1 5 sus $end
$var wire 13 1" sum [12:0] $end
$var wire 13 2" b_signed [12:0] $end
$var wire 12 3" b [11:0] $end
$var wire 13 4" a_signed [12:0] $end
$var wire 12 5" a [11:0] $end
$var parameter 32 6" width $end
$upscope $end
$scope module add1_2 $end
$var wire 1 5 sus $end
$var wire 13 7" sum [12:0] $end
$var wire 13 8" b_signed [12:0] $end
$var wire 12 9" b [11:0] $end
$var wire 13 :" a_signed [12:0] $end
$var wire 12 ;" a [11:0] $end
$var parameter 32 <" width $end
$upscope $end
$scope module add1_3 $end
$var wire 1 5 sus $end
$var wire 13 =" sum [12:0] $end
$var wire 13 >" b_signed [12:0] $end
$var wire 12 ?" b [11:0] $end
$var wire 13 @" a_signed [12:0] $end
$var wire 12 A" a [11:0] $end
$var parameter 32 B" width $end
$upscope $end
$scope module add2_0 $end
$var wire 13 C" a [12:0] $end
$var wire 13 D" b [12:0] $end
$var wire 1 5 sus $end
$var wire 14 E" sum [13:0] $end
$var wire 14 F" b_signed [13:0] $end
$var wire 14 G" a_signed [13:0] $end
$var parameter 32 H" width $end
$upscope $end
$scope module add2_1 $end
$var wire 13 I" a [12:0] $end
$var wire 13 J" b [12:0] $end
$var wire 1 5 sus $end
$var wire 14 K" sum [13:0] $end
$var wire 14 L" b_signed [13:0] $end
$var wire 14 M" a_signed [13:0] $end
$var parameter 32 N" width $end
$upscope $end
$scope module add3_0 $end
$var wire 14 O" a [13:0] $end
$var wire 14 P" b [13:0] $end
$var wire 1 5 sus $end
$var wire 15 Q" sum [14:0] $end
$var wire 15 R" b_signed [14:0] $end
$var wire 15 S" a_signed [14:0] $end
$var parameter 32 T" width $end
$upscope $end
$scope module mult0 $end
$var wire 12 U" a [11:0] $end
$var wire 12 V" b [11:0] $end
$var wire 1 W" c $end
$var wire 1 X" d $end
$var wire 12 Y" e [11:0] $end
$var wire 12 Z" d_ext [11:0] $end
$var wire 12 [" c_ext [11:0] $end
$upscope $end
$scope module mult1 $end
$var wire 12 \" a [11:0] $end
$var wire 12 ]" b [11:0] $end
$var wire 1 ^" c $end
$var wire 1 _" d $end
$var wire 12 `" e [11:0] $end
$var wire 12 a" d_ext [11:0] $end
$var wire 12 b" c_ext [11:0] $end
$upscope $end
$scope module mult2 $end
$var wire 12 c" a [11:0] $end
$var wire 12 d" b [11:0] $end
$var wire 1 e" c $end
$var wire 1 f" d $end
$var wire 12 g" e [11:0] $end
$var wire 12 h" d_ext [11:0] $end
$var wire 12 i" c_ext [11:0] $end
$upscope $end
$scope module mult3 $end
$var wire 12 j" a [11:0] $end
$var wire 12 k" b [11:0] $end
$var wire 1 l" c $end
$var wire 1 m" d $end
$var wire 12 n" e [11:0] $end
$var wire 12 o" d_ext [11:0] $end
$var wire 12 p" c_ext [11:0] $end
$upscope $end
$scope module mult4 $end
$var wire 12 q" a [11:0] $end
$var wire 12 r" b [11:0] $end
$var wire 1 s" c $end
$var wire 1 t" d $end
$var wire 12 u" e [11:0] $end
$var wire 12 v" d_ext [11:0] $end
$var wire 12 w" c_ext [11:0] $end
$upscope $end
$scope module mult5 $end
$var wire 12 x" a [11:0] $end
$var wire 12 y" b [11:0] $end
$var wire 1 z" c $end
$var wire 1 {" d $end
$var wire 12 |" e [11:0] $end
$var wire 12 }" d_ext [11:0] $end
$var wire 12 ~" c_ext [11:0] $end
$upscope $end
$scope module mult6 $end
$var wire 12 !# a [11:0] $end
$var wire 12 "# b [11:0] $end
$var wire 1 ## c $end
$var wire 1 $# d $end
$var wire 12 %# e [11:0] $end
$var wire 12 &# d_ext [11:0] $end
$var wire 12 '# c_ext [11:0] $end
$upscope $end
$scope module mult7 $end
$var wire 12 (# a [11:0] $end
$var wire 12 )# b [11:0] $end
$var wire 1 *# c $end
$var wire 1 +# d $end
$var wire 12 ,# e [11:0] $end
$var wire 12 -# d_ext [11:0] $end
$var wire 12 .# c_ext [11:0] $end
$upscope $end
$upscope $end
$scope module mac_low_bits_inst $end
$var wire 1 5 sus $end
$var wire 96 /# wb0 [95:0] $end
$var wire 96 0# wb1 [95:0] $end
$var wire 8 1# rwlb_row1 [7:0] $end
$var wire 8 2# rwlb_row0 [7:0] $end
$var wire 15 3# mac_out [14:0] $end
$scope module add1_0 $end
$var wire 1 5 sus $end
$var wire 13 4# sum [12:0] $end
$var wire 13 5# b_signed [12:0] $end
$var wire 12 6# b [11:0] $end
$var wire 13 7# a_signed [12:0] $end
$var wire 12 8# a [11:0] $end
$var parameter 32 9# width $end
$upscope $end
$scope module add1_1 $end
$var wire 1 5 sus $end
$var wire 13 :# sum [12:0] $end
$var wire 13 ;# b_signed [12:0] $end
$var wire 12 <# b [11:0] $end
$var wire 13 =# a_signed [12:0] $end
$var wire 12 ># a [11:0] $end
$var parameter 32 ?# width $end
$upscope $end
$scope module add1_2 $end
$var wire 1 5 sus $end
$var wire 13 @# sum [12:0] $end
$var wire 13 A# b_signed [12:0] $end
$var wire 12 B# b [11:0] $end
$var wire 13 C# a_signed [12:0] $end
$var wire 12 D# a [11:0] $end
$var parameter 32 E# width $end
$upscope $end
$scope module add1_3 $end
$var wire 1 5 sus $end
$var wire 13 F# sum [12:0] $end
$var wire 13 G# b_signed [12:0] $end
$var wire 12 H# b [11:0] $end
$var wire 13 I# a_signed [12:0] $end
$var wire 12 J# a [11:0] $end
$var parameter 32 K# width $end
$upscope $end
$scope module add2_0 $end
$var wire 13 L# a [12:0] $end
$var wire 13 M# b [12:0] $end
$var wire 1 5 sus $end
$var wire 14 N# sum [13:0] $end
$var wire 14 O# b_signed [13:0] $end
$var wire 14 P# a_signed [13:0] $end
$var parameter 32 Q# width $end
$upscope $end
$scope module add2_1 $end
$var wire 13 R# a [12:0] $end
$var wire 13 S# b [12:0] $end
$var wire 1 5 sus $end
$var wire 14 T# sum [13:0] $end
$var wire 14 U# b_signed [13:0] $end
$var wire 14 V# a_signed [13:0] $end
$var parameter 32 W# width $end
$upscope $end
$scope module add3_0 $end
$var wire 14 X# a [13:0] $end
$var wire 14 Y# b [13:0] $end
$var wire 1 5 sus $end
$var wire 15 Z# sum [14:0] $end
$var wire 15 [# b_signed [14:0] $end
$var wire 15 \# a_signed [14:0] $end
$var parameter 32 ]# width $end
$upscope $end
$scope module mult0 $end
$var wire 12 ^# a [11:0] $end
$var wire 12 _# b [11:0] $end
$var wire 1 `# c $end
$var wire 1 a# d $end
$var wire 12 b# e [11:0] $end
$var wire 12 c# d_ext [11:0] $end
$var wire 12 d# c_ext [11:0] $end
$upscope $end
$scope module mult1 $end
$var wire 12 e# a [11:0] $end
$var wire 12 f# b [11:0] $end
$var wire 1 g# c $end
$var wire 1 h# d $end
$var wire 12 i# e [11:0] $end
$var wire 12 j# d_ext [11:0] $end
$var wire 12 k# c_ext [11:0] $end
$upscope $end
$scope module mult2 $end
$var wire 12 l# a [11:0] $end
$var wire 12 m# b [11:0] $end
$var wire 1 n# c $end
$var wire 1 o# d $end
$var wire 12 p# e [11:0] $end
$var wire 12 q# d_ext [11:0] $end
$var wire 12 r# c_ext [11:0] $end
$upscope $end
$scope module mult3 $end
$var wire 12 s# a [11:0] $end
$var wire 12 t# b [11:0] $end
$var wire 1 u# c $end
$var wire 1 v# d $end
$var wire 12 w# e [11:0] $end
$var wire 12 x# d_ext [11:0] $end
$var wire 12 y# c_ext [11:0] $end
$upscope $end
$scope module mult4 $end
$var wire 12 z# a [11:0] $end
$var wire 12 {# b [11:0] $end
$var wire 1 |# c $end
$var wire 1 }# d $end
$var wire 12 ~# e [11:0] $end
$var wire 12 !$ d_ext [11:0] $end
$var wire 12 "$ c_ext [11:0] $end
$upscope $end
$scope module mult5 $end
$var wire 12 #$ a [11:0] $end
$var wire 12 $$ b [11:0] $end
$var wire 1 %$ c $end
$var wire 1 &$ d $end
$var wire 12 '$ e [11:0] $end
$var wire 12 ($ d_ext [11:0] $end
$var wire 12 )$ c_ext [11:0] $end
$upscope $end
$scope module mult6 $end
$var wire 12 *$ a [11:0] $end
$var wire 12 +$ b [11:0] $end
$var wire 1 ,$ c $end
$var wire 1 -$ d $end
$var wire 12 .$ e [11:0] $end
$var wire 12 /$ d_ext [11:0] $end
$var wire 12 0$ c_ext [11:0] $end
$upscope $end
$scope module mult7 $end
$var wire 12 1$ a [11:0] $end
$var wire 12 2$ b [11:0] $end
$var wire 1 3$ c $end
$var wire 1 4$ d $end
$var wire 12 5$ e [11:0] $end
$var wire 12 6$ d_ext [11:0] $end
$var wire 12 7$ c_ext [11:0] $end
$upscope $end
$upscope $end
$scope module rwldrv_inst $end
$var wire 1 & cima $end
$var wire 1 ( inwidth $end
$var wire 6 8$ sel [5:0] $end
$var wire 192 9$ xin0 [191:0] $end
$var reg 8 :$ rwlb_row0 [7:0] $end
$var reg 8 ;$ rwlb_row1 [7:0] $end
$scope begin RWLDRV_LOGIC $end
$var reg 6 <$ bit_to_select [5:0] $end
$var reg 8 =$ selected_bits [7:0] $end
$var integer 32 >$ i [31:0] $end
$upscope $end
$upscope $end
$upscope $end
$scope task run_computation $end
$var reg 1 ?$ bank_select $end
$var reg 1 @$ in_w $end
$var reg 1 A$ w_w $end
$var reg 192 B$ x_in [191:0] $end
$upscope $end
$scope task write_weights $end
$var reg 1 C$ bank_select $end
$upscope $end
$upscope $end
$enddefinitions $end
$comment Show the parameter values. $end
$dumpall
b1110 ]#
b1101 W#
b1101 Q#
b1100 K#
b1100 E#
b1100 ?#
b1100 9#
b1110 T"
b1101 N"
b1101 H"
b1100 B"
b1100 <"
b1100 6"
b1100 0"
b11011 %"
b11011 s
b0 X
b10 W
b1 V
$end
#0
$dumpvars
xC$
bx B$
xA$
x@$
x?$
b1000 >$
b0 =$
b1011 <$
b11111111 ;$
b11111111 :$
b0 9$
b0 8$
b111111111111 7$
b111111111111 6$
b0 5$
14$
13$
bx 2$
bx 1$
b111111111111 0$
b111111111111 /$
b0 .$
1-$
1,$
bx +$
bx *$
b111111111111 )$
b111111111111 ($
b0 '$
1&$
1%$
bx $$
bx #$
b111111111111 "$
b111111111111 !$
b0 ~#
1}#
1|#
bx {#
bx z#
b111111111111 y#
b111111111111 x#
b0 w#
1v#
1u#
bx t#
bx s#
b111111111111 r#
b111111111111 q#
b0 p#
1o#
1n#
bx m#
bx l#
b111111111111 k#
b111111111111 j#
b0 i#
1h#
1g#
bx f#
bx e#
b111111111111 d#
b111111111111 c#
b0 b#
1a#
1`#
bx _#
bx ^#
b0 \#
b0 [#
b0 Z#
b0 Y#
b0 X#
b0 V#
b0 U#
b0 T#
b0 S#
b0 R#
b0 P#
b0 O#
b0 N#
b0 M#
b0 L#
b0 J#
b0 I#
b0 H#
b0 G#
b0 F#
b0 D#
b0 C#
b0 B#
b0 A#
b0 @#
b0 >#
b0 =#
b0 <#
b0 ;#
b0 :#
b0 8#
b0 7#
b0 6#
b0 5#
b0 4#
b0 3#
b11111111 2#
b11111111 1#
bx 0#
bx /#
b111111111111 .#
b111111111111 -#
b0 ,#
1+#
1*#
bx )#
bx (#
b111111111111 '#
b111111111111 &#
b0 %#
1$#
1##
bx "#
bx !#
b111111111111 ~"
b111111111111 }"
b0 |"
1{"
1z"
bx y"
bx x"
b111111111111 w"
b111111111111 v"
b0 u"
1t"
1s"
bx r"
bx q"
b111111111111 p"
b111111111111 o"
b0 n"
1m"
1l"
bx k"
bx j"
b111111111111 i"
b111111111111 h"
b0 g"
1f"
1e"
bx d"
bx c"
b111111111111 b"
b111111111111 a"
b0 `"
1_"
1^"
bx ]"
bx \"
b111111111111 ["
b111111111111 Z"
b0 Y"
1X"
1W"
bx V"
bx U"
b0 S"
b0 R"
b0 Q"
b0 P"
b0 O"
b0 M"
b0 L"
b0 K"
b0 J"
b0 I"
b0 G"
b0 F"
b0 E"
b0 D"
b0 C"
b0 A"
b0 @"
b0 ?"
b0 >"
b0 ="
b0 ;"
b0 :"
b0 9"
b0 8"
b0 7"
b0 5"
b0 4"
b0 3"
b0 2"
b0 1"
b0 /"
b0 ."
b0 -"
b0 ,"
b0 +"
b0 *"
b11111111 )"
b11111111 ("
bx '"
bx &"
b0 $"
0#"
b0 ""
b0 !"
b0 ~
b0 }
b0 |
b0 {
b0 z
b0 y
b0 x
b0 w
b0 v
b0 u
b0 t
b0 r
0q
b0 p
b0 o
b0 n
b0 m
b0 l
0k
b0 j
b0 i
b0 h
b0 g
b0 f
b0 e
b0 d
b0 c
b0 b
b0 a
b0 `
b0 _
b0 ^
b0 ]
b0 \
b0 [
b0 Z
b0 Y
b1011 U
b0 T
b0 S
b0 R
b0 Q
b0 P
b0 O
b0 N
bx M
bx L
b0 K
b0 J
bx I
bx H
b0 G
b0 F
b0 E
bx D
bx C
bx B
bx A
b0 @
b0 ?
b0 >
bx =
bx <
b0 ;
b0 :
b0 9
b11111111 8
b11111111 7
b0 6
15
bx 4
bx 3
bx 2
bx 1
b0 0
b0 /
b0 .
bx -
b0 ,
0+
0*
0)
0(
0'
0&
0%
b0 $
b0 #
b0 "
1!
$end
#5000
1'
#10000
0'
#15000
1'
#20000
0'
1)
#25000
1'
#30000
b111111111110 ^#
b111111111110 _#
b111111111111 U"
b111111111111 V"
bx111111111110 =
bx111111111110 /#
bx111111111110 0#
bx111111111111 <
bx111111111111 &"
bx111111111111 '"
bx111111111110 4
bx111111111110 D
bx111111111110 H
bx111111111111 3
bx111111111111 C
bx111111111111 I
b1 @
b1 G
b1 K
b1 O
b1 R
b1 ?
b1 F
b1 J
b1 S
0'
b1 #
b1 .
b1 P
b1 $
b1 /
b1 Q
b0 -
0C$
#35000
1'
#40000
b111111111101 e#
b111111111101 f#
b111111111111 \"
b111111111111 ]"
bx111111111101111111111110 =
bx111111111101111111111110 /#
bx111111111101111111111110 0#
bx111111111111111111111111 <
bx111111111111111111111111 &"
bx111111111111111111111111 '"
bx111111111101111111111110 4
bx111111111101111111111110 D
bx111111111101111111111110 H
bx111111111111111111111111 3
bx111111111111111111111111 C
bx111111111111111111111111 I
b10 @
b10 G
b10 K
b10 O
b10 R
b10 ?
b10 F
b10 J
b10 S
0'
b10 #
b10 .
b10 P
b10 $
b10 /
b10 Q
b1 -
#45000
1'
#50000
b111111111100 l#
b111111111100 m#
b111111111111 c"
b111111111111 d"
bx111111111100111111111101111111111110 =
bx111111111100111111111101111111111110 /#
bx111111111100111111111101111111111110 0#
bx111111111111111111111111111111111111 <
bx111111111111111111111111111111111111 &"
bx111111111111111111111111111111111111 '"
bx111111111100111111111101111111111110 4
bx111111111100111111111101111111111110 D
bx111111111100111111111101111111111110 H
bx111111111111111111111111111111111111 3
bx111111111111111111111111111111111111 C
bx111111111111111111111111111111111111 I
b11 @
b11 G
b11 K
b11 O
b11 R
b100 ?
b100 F
b100 J
b100 S
0'
b11 #
b11 .
b11 P
b100 $
b100 /
b100 Q
b10 -
#55000
1'
#60000
b111111111011 s#
b111111111011 t#
b111111111111 j"
b111111111111 k"
bx111111111011111111111100111111111101111111111110 =
bx111111111011111111111100111111111101111111111110 /#
bx111111111011111111111100111111111101111111111110 0#
bx111111111111111111111111111111111111111111111111 <
bx111111111111111111111111111111111111111111111111 &"
bx111111111111111111111111111111111111111111111111 '"
bx111111111011111111111100111111111101111111111110 4
bx111111111011111111111100111111111101111111111110 D
bx111111111011111111111100111111111101111111111110 H
bx111111111111111111111111111111111111111111111111 3
bx111111111111111111111111111111111111111111111111 C
bx111111111111111111111111111111111111111111111111 I
b100 @
b100 G
b100 K
b100 O
b100 R
b1000 ?
b1000 F
b1000 J
b1000 S
0'
b100 #
b100 .
b100 P
b1000 $
b1000 /
b1000 Q
b11 -
#65000
1'
#70000
b111111111010 z#
b111111111010 {#
b111111111111 q"
b111111111111 r"
bx111111111010111111111011111111111100111111111101111111111110 =
bx111111111010111111111011111111111100111111111101111111111110 /#
bx111111111010111111111011111111111100111111111101111111111110 0#
bx111111111111111111111111111111111111111111111111111111111111 <
bx111111111111111111111111111111111111111111111111111111111111 &"
bx111111111111111111111111111111111111111111111111111111111111 '"
bx111111111010111111111011111111111100111111111101111111111110 4
bx111111111010111111111011111111111100111111111101111111111110 D
bx111111111010111111111011111111111100111111111101111111111110 H
bx111111111111111111111111111111111111111111111111111111111111 3
bx111111111111111111111111111111111111111111111111111111111111 C
bx111111111111111111111111111111111111111111111111111111111111 I
b101 @
b101 G
b101 K
b101 O
b101 R
b10000 ?
b10000 F
b10000 J
b10000 S
0'
b101 #
b101 .
b101 P
b10000 $
b10000 /
b10000 Q
b100 -
#75000
1'
#80000
b111111111001 #$
b111111111001 $$
b111111111111 x"
b111111111111 y"
bx111111111001111111111010111111111011111111111100111111111101111111111110 =
bx111111111001111111111010111111111011111111111100111111111101111111111110 /#
bx111111111001111111111010111111111011111111111100111111111101111111111110 0#
bx111111111111111111111111111111111111111111111111111111111111111111111111 <
bx111111111111111111111111111111111111111111111111111111111111111111111111 &"
bx111111111111111111111111111111111111111111111111111111111111111111111111 '"
bx111111111001111111111010111111111011111111111100111111111101111111111110 4
bx111111111001111111111010111111111011111111111100111111111101111111111110 D
bx111111111001111111111010111111111011111111111100111111111101111111111110 H
bx111111111111111111111111111111111111111111111111111111111111111111111111 3
bx111111111111111111111111111111111111111111111111111111111111111111111111 C
bx111111111111111111111111111111111111111111111111111111111111111111111111 I
b110 @
b110 G
b110 K
b110 O
b110 R
b100000 ?
b100000 F
b100000 J
b100000 S
0'
b110 #
b110 .
b110 P
b100000 $
b100000 /
b100000 Q
b101 -
#85000
1'
#90000
b111111111000 *$
b111111111000 +$
b111111111111 !#
b111111111111 "#
bx111111111000111111111001111111111010111111111011111111111100111111111101111111111110 =
bx111111111000111111111001111111111010111111111011111111111100111111111101111111111110 /#
bx111111111000111111111001111111111010111111111011111111111100111111111101111111111110 0#
bx111111111111111111111111111111111111111111111111111111111111111111111111111111111111 <
bx111111111111111111111111111111111111111111111111111111111111111111111111111111111111 &"
bx111111111111111111111111111111111111111111111111111111111111111111111111111111111111 '"
bx111111111000111111111001111111111010111111111011111111111100111111111101111111111110 4
bx111111111000111111111001111111111010111111111011111111111100111111111101111111111110 D
bx111111111000111111111001111111111010111111111011111111111100111111111101111111111110 H
bx111111111111111111111111111111111111111111111111111111111111111111111111111111111111 3
bx111111111111111111111111111111111111111111111111111111111111111111111111111111111111 C
bx111111111111111111111111111111111111111111111111111111111111111111111111111111111111 I
b111 @
b111 G
b111 K
b111 O
b111 R
b1000000 ?
b1000000 F
b1000000 J
b1000000 S
0'
b111 #
b111 .
b111 P
b1000000 $
b1000000 /
b1000000 Q
b110 -
#95000
1'
#100000
b111111110111 1$
b111111110111 2$
b111111111111 (#
b111111111111 )#
b111111110111111111111000111111111001111111111010111111111011111111111100111111111101111111111110 =
b111111110111111111111000111111111001111111111010111111111011111111111100111111111101111111111110 /#
b111111110111111111111000111111111001111111111010111111111011111111111100111111111101111111111110 0#
b111111111111111111111111111111111111111111111111111111111111111111111111111111111111111111111111 <
b111111111111111111111111111111111111111111111111111111111111111111111111111111111111111111111111 &"
b111111111111111111111111111111111111111111111111111111111111111111111111111111111111111111111111 '"
b111111110111111111111000111111111001111111111010111111111011111111111100111111111101111111111110 4
b111111110111111111111000111111111001111111111010111111111011111111111100111111111101111111111110 D
b111111110111111111111000111111111001111111111010111111111011111111111100111111111101111111111110 H
b111111111111111111111111111111111111111111111111111111111111111111111111111111111111111111111111 3
b111111111111111111111111111111111111111111111111111111111111111111111111111111111111111111111111 C
b111111111111111111111111111111111111111111111111111111111111111111111111111111111111111111111111 I
b1000 @
b1000 G
b1000 K
b1000 O
b1000 R
b10000000 ?
b10000000 F
b10000000 J
b10000000 S
0'
b1000 #
b1000 .
b1000 P
b10000000 $
b10000000 /
b10000000 Q
b111 -
#105000
1'
#110000
b0 @
b0 G
b0 K
b0 O
b0 R
b0 ?
b0 F
b0 J
b0 S
0'
b0 #
b0 .
b0 P
b0 $
b0 /
b0 Q
b1000 -
#115000
1'
#120000
bx111111101110 2
bx111111101110 B
bx111111101110 L
bx111011111110 1
bx111011111110 A
bx111011111110 M
b111111101110 ^#
b111111101110 _#
bx e#
bx f#
bx l#
bx m#
bx s#
bx t#
bx z#
bx {#
bx #$
bx $$
bx *$
bx +$
bx 1$
bx 2$
b111011111110 U"
b111011111110 V"
bx \"
bx ]"
bx c"
bx d"
bx j"
bx k"
bx q"
bx r"
bx x"
bx y"
bx !#
bx "#
bx (#
bx )#
b100000001000000010001 @
b100000001000000010001 G
b100000001000000010001 K
b100000001000000010001 O
b100000001000000010001 R
bx111111101110 =
bx111111101110 /#
bx111111101110 0#
bx111011111110 <
bx111011111110 &"
bx111011111110 '"
b1 >
b1 E
b1 N
b1 T
b1000 >$
0'
b100000001000000010001 #
b100000001000000010001 .
b100000001000000010001 P
b1 $
b1 /
b1 Q
b0 -
1&
1C$
#125000
1'
#130000
b111111101101 e#
b111111101101 f#
b111011111110 \"
b111011111110 ]"
bx111111101101111111101110 =
bx111111101101111111101110 /#
bx111111101101111111101110 0#
bx111011111110111011111110 <
bx111011111110111011111110 &"
bx111011111110111011111110 '"
bx111111101101111111101110 2
bx111111101101111111101110 B
bx111111101101111111101110 L
bx111011111110111011111110 1
bx111011111110111011111110 A
bx111011111110111011111110 M
b100000001000000010010 @
b100000001000000010010 G
b100000001000000010010 K
b100000001000000010010 O
b100000001000000010010 R
b10 >
b10 E
b10 N
b10 T
0'
b100000001000000010010 #
b100000001000000010010 .
b100000001000000010010 P
b10 $
b10 /
b10 Q
b1 -
#135000
1'
#140000
b111111101100 l#
b111111101100 m#
b111011111110 c"
b111011111110 d"
bx111111101100111111101101111111101110 =
bx111111101100111111101101111111101110 /#
bx111111101100111111101101111111101110 0#
bx111011111110111011111110111011111110 <
bx111011111110111011111110111011111110 &"
bx111011111110111011111110111011111110 '"
bx111111101100111111101101111111101110 2
bx111111101100111111101101111111101110 B
bx111111101100111111101101111111101110 L
bx111011111110111011111110111011111110 1
bx111011111110111011111110111011111110 A
bx111011111110111011111110111011111110 M
b100000001000000010011 @
b100000001000000010011 G
b100000001000000010011 K
b100000001000000010011 O
b100000001000000010011 R
b100 >
b100 E
b100 N
b100 T
0'
b100000001000000010011 #
b100000001000000010011 .
b100000001000000010011 P
b100 $
b100 /
b100 Q
b10 -
#145000
1'
#150000
b111111101011 s#
b111111101011 t#
b111011111110 j"
b111011111110 k"
bx111111101011111111101100111111101101111111101110 =
bx111111101011111111101100111111101101111111101110 /#
bx111111101011111111101100111111101101111111101110 0#
bx111011111110111011111110111011111110111011111110 <
bx111011111110111011111110111011111110111011111110 &"
bx111011111110111011111110111011111110111011111110 '"
bx111111101011111111101100111111101101111111101110 2
bx111111101011111111101100111111101101111111101110 B
bx111111101011111111101100111111101101111111101110 L
bx111011111110111011111110111011111110111011111110 1
bx111011111110111011111110111011111110111011111110 A
bx111011111110111011111110111011111110111011111110 M
b100000001000000010100 @
b100000001000000010100 G
b100000001000000010100 K
b100000001000000010100 O
b100000001000000010100 R
b1000 >
b1000 E
b1000 N
b1000 T
0'
b100000001000000010100 #
b100000001000000010100 .
b100000001000000010100 P
b1000 $
b1000 /
b1000 Q
b11 -
#155000
1'
#160000
b111111101010 z#
b111111101010 {#
b111011111110 q"
b111011111110 r"
bx111111101010111111101011111111101100111111101101111111101110 =
bx111111101010111111101011111111101100111111101101111111101110 /#
bx111111101010111111101011111111101100111111101101111111101110 0#
bx111011111110111011111110111011111110111011111110111011111110 <
bx111011111110111011111110111011111110111011111110111011111110 &"
bx111011111110111011111110111011111110111011111110111011111110 '"
bx111111101010111111101011111111101100111111101101111111101110 2
bx111111101010111111101011111111101100111111101101111111101110 B
bx111111101010111111101011111111101100111111101101111111101110 L
bx111011111110111011111110111011111110111011111110111011111110 1
bx111011111110111011111110111011111110111011111110111011111110 A
bx111011111110111011111110111011111110111011111110111011111110 M
b100000001000000010101 @
b100000001000000010101 G
b100000001000000010101 K
b100000001000000010101 O
b100000001000000010101 R
b10000 >
b10000 E
b10000 N
b10000 T
0'
b100000001000000010101 #
b100000001000000010101 .
b100000001000000010101 P
b10000 $
b10000 /
b10000 Q
b100 -
#165000
1'
